<?xml version="1.0" encoding="utf-8"?>
<!-- Generator: Adobe Illustrator 24.0.3, SVG Export Plug-In . SVG Version: 6.00 Build 0)  -->
<svg version="1.1" id="Calque_1" xmlns="http://www.w3.org/2000/svg" xmlns:xlink="http://www.w3.org/1999/xlink" x="0px" y="0px"
	 viewBox="0 0 24 24" style="enable-background:new 0 0 24 24;" xml:space="preserve">
<style type="text/css">
	.st0{fill:none;}
</style>
<path class="st0" d="M0,0h24v24H0V0z"/>
<path d="M21.6,4.8H12L9.6,2.4H2.4C1.1,2.4,0,3.5,0,4.8v14.4c0,1.3,1.1,2.4,2.4,2.4h19.2c1.3,0,2.4-1.1,2.4-2.4v-12
	C24,5.9,22.9,4.8,21.6,4.8z M19.1,18l-3.5-2.1L12.1,18l0.9-4l-3.1-2.7L14,11l1.6-3.8l1.6,3.8l4.1,0.3L18.2,14L19.1,18z"/>
</svg>
