<?xml version="1.0" encoding="utf-8"?>
<!-- Generator: Adobe Illustrator 24.0.3, SVG Export Plug-In . SVG Version: 6.00 Build 0)  -->
<svg version="1.1" id="Calque_1" xmlns="http://www.w3.org/2000/svg" xmlns:xlink="http://www.w3.org/1999/xlink" x="0px" y="0px"
	 viewBox="0 0 25.3 20.9" style="enable-background:new 0 0 25.3 20.9;" xml:space="preserve">
<style type="text/css">
	.st0{fill:#FFFFFF;}
</style>
<path class="st0" d="M8.2,10h0.5v10.9H8.2V10z M16.6,10h0.5v10.9h-0.5V10z M0,20.9h0.1h0.3h0.1V0H0V20.9z M24.8,20.9h0.1h0.3h0.1V0
	h-0.5V20.9z"/>
</svg>
