<?xml version="1.0" encoding="utf-8"?>
<!-- Generator: Adobe Illustrator 24.0.3, SVG Export Plug-In . SVG Version: 6.00 Build 0)  -->
<svg version="1.1" id="Calque_1" xmlns="http://www.w3.org/2000/svg" xmlns:xlink="http://www.w3.org/1999/xlink" x="0px" y="0px"
	 viewBox="0 0 494 488" style="enable-background:new 0 0 494 488;" xml:space="preserve">
<style type="text/css">
	.st0{fill-rule:evenodd;clip-rule:evenodd;fill:#D07335;fill-opacity:0.15;}
</style>
<path id="Fill-1-Copy-3_1_" class="st0" d="M157.7,283c-12.9-35.5-27.2-70.4-46.6-103.6c-15-25.6-33.6-47.7-51.8-71.2
	c-15.1-19.5-29-44.4-17.7-69.4C67.9-19.1,164.9,1,211.3,15.5c118.6,37.1,222.9,123.2,269.3,232.2c25.6,60.1,14.4,134.9-31.6,186.1
	C399.6,489,305,509.3,246.1,460.1c-27.3-22.8-44-54.8-56.3-87.2C178.5,342.9,168.6,312.8,157.7,283"/>
</svg>
