<?xml version="1.0" encoding="utf-8"?>
<!-- Generator: Adobe Illustrator 24.0.3, SVG Export Plug-In . SVG Version: 6.00 Build 0)  -->
<svg version="1.1" id="Calque_1" xmlns="http://www.w3.org/2000/svg" xmlns:xlink="http://www.w3.org/1999/xlink" x="0px" y="0px"
	 viewBox="0 0 300 300" style="enable-background:new 0 0 300 300;" xml:space="preserve">
<style type="text/css">
	.st0{fill:#32373C;}
	.st1{fill:none;}
</style>
<title>Fichier 1</title>
<g id="Calque_2_1_">
	<g id="github_blue">
		<path id="W_Mark" class="st0" d="M150,32.5c23.4,0,46.3,7,65.7,20.1c18.9,12.7,33.7,30.7,42.6,51.7
			c15.5,36.6,11.4,78.5-10.8,111.4c-12.7,18.9-30.7,33.7-51.7,42.6c-36.6,15.5-78.5,11.4-111.4-10.8c-18.9-12.7-33.7-30.7-42.6-51.7
			c-15.5-36.6-11.4-78.5,10.8-111.4c12.7-18.9,30.7-33.7,51.7-42.6C118.7,35.6,134.3,32.5,150,32.5 M150,25C81,25,25,81,25,150
			s56,125,125,125s125-56,125-125S219,25,150,25z M45.8,150c0,39.9,22.8,76.3,58.7,93.7L54.8,107.6C48.9,120.9,45.8,135.4,45.8,150z
			 M220.3,144.7c0-12.9-4.6-21.8-8.6-28.7c-5.3-8.6-10.2-15.8-10.2-24.4c0-9.6,7.3-18.5,17.5-18.5c0.5,0,0.9,0.1,1.4,0.1
			C177.9,34.3,112,37.2,73.2,79.7C69.4,83.8,66,88.1,63,92.8c2.4,0.1,4.8,0.1,6.7,0.1c10.9,0,27.8-1.3,27.8-1.3
			c5.6-0.3,6.3,7.9,0.7,8.6c0,0-5.7,0.7-11.9,1L124.1,214l22.8-68.3l-16.2-44.5c-5.6-0.3-10.9-1-10.9-1c-5.6-0.3-5-8.9,0.7-8.6
			c0,0,17.2,1.3,27.4,1.3c10.9,0,27.8-1.3,27.8-1.3c5.6-0.3,6.3,7.9,0.7,8.6c0,0-5.7,0.7-11.9,1l37.6,112l10.7-34
			C217.5,164.2,220.3,153.7,220.3,144.7z M151.8,159.1l-31.3,90.8c21,6.2,43.4,5.6,64-1.7c-0.3-0.5-0.5-0.9-0.7-1.4L151.8,159.1z
			 M241.4,100c0.5,3.5,0.7,7.1,0.7,10.7c0,10.6-2,22.4-7.9,37.3l-31.8,92C251.2,211.6,268.5,149.5,241.4,100z"/>
	</g>
</g>
<rect x="-1" y="-1" class="st1" width="300" height="300"/>
</svg>
