<?xml version="1.0" encoding="utf-8"?>
<!-- Generator: Adobe Illustrator 24.0.3, SVG Export Plug-In . SVG Version: 6.00 Build 0)  -->
<svg version="1.1" id="Calque_1" xmlns="http://www.w3.org/2000/svg" xmlns:xlink="http://www.w3.org/1999/xlink" x="0px" y="0px"
	 viewBox="0 0 547.2 501.4" style="enable-background:new 0 0 547.2 501.4;" xml:space="preserve">
<style type="text/css">
	.st0{opacity:0.9;fill:#FFFFFF;}
	.st1{fill:#19283C;}
	.st2{fill-rule:evenodd;clip-rule:evenodd;fill:#D07335;fill-opacity:5.000000e-02;}
	.st3{filter:url(#Adobe_OpacityMaskFilter);}
	.st4{fill-rule:evenodd;clip-rule:evenodd;fill:#FFFFFF;}
	.st5{opacity:0.3;fill-rule:evenodd;clip-rule:evenodd;fill:#FFFFFF;}
	.st6{opacity:0.7;}
	.st7{opacity:0.1;mask:url(#Reseau._ext_1_);}
	.st8{fill:#521B53;}
	.st9{fill:none;stroke:#521B53;stroke-miterlimit:10;}
	.st10{opacity:0.8;fill:#521B53;}
	.st11{filter:url(#Adobe_OpacityMaskFilter_1_);}
	.st12{fill:#FFFFFF;}
	.st13{mask:url(#Bulle_1_);}
	.st14{filter:url(#Adobe_OpacityMaskFilter_2_);}
	.st15{fill:url(#SVGID_1_);}
	.st16{fill:#D24C47;}
	.st17{filter:url(#Adobe_OpacityMaskFilter_3_);}
	.st18{fill:url(#SVGID_2_);}
	.st19{mask:url(#Reseau_2_);}
	.st20{opacity:0.8;}
	.st21{fill:none;stroke:url(#SVGID_3_);stroke-width:0.5;stroke-miterlimit:10;}
	.st22{fill:none;stroke:url(#SVGID_4_);stroke-miterlimit:10;}
	.st23{fill:none;stroke:url(#SVGID_5_);stroke-miterlimit:10;}
	.st24{fill:none;stroke:url(#SVGID_6_);stroke-miterlimit:10;}
	.st25{fill:none;stroke:url(#SVGID_7_);stroke-linecap:round;stroke-linejoin:round;stroke-miterlimit:10;}
	.st26{fill:none;stroke:url(#SVGID_8_);stroke-width:0.5;stroke-miterlimit:10;}
	.st27{fill:none;stroke:url(#SVGID_9_);stroke-miterlimit:10;}
	.st28{fill:none;stroke:url(#SVGID_10_);stroke-miterlimit:10;}
	.st29{fill:none;stroke:url(#SVGID_11_);stroke-width:0.5;stroke-miterlimit:10;}
	.st30{fill:none;stroke:url(#SVGID_12_);stroke-linecap:round;stroke-linejoin:round;stroke-miterlimit:10;}
	.st31{fill:none;stroke:url(#SVGID_13_);stroke-linejoin:bevel;stroke-miterlimit:10;}
	.st32{fill:none;stroke:url(#SVGID_14_);stroke-linecap:round;stroke-linejoin:round;stroke-miterlimit:10;}
	.st33{fill:none;stroke:url(#SVGID_15_);stroke-linejoin:bevel;stroke-miterlimit:10;}
	.st34{fill:none;stroke:url(#SVGID_16_);stroke-width:0.5;stroke-miterlimit:10;}
	.st35{fill:none;stroke:url(#SVGID_17_);stroke-linecap:round;stroke-linejoin:round;stroke-miterlimit:10;}
	.st36{fill:none;stroke:url(#SVGID_18_);stroke-linecap:round;stroke-linejoin:round;stroke-miterlimit:10;}
	.st37{fill:none;stroke:url(#SVGID_19_);stroke-miterlimit:10;}
	.st38{fill:none;stroke:url(#SVGID_20_);stroke-linecap:round;stroke-linejoin:round;stroke-miterlimit:10;}
	.st39{fill:none;stroke:url(#SVGID_21_);stroke-miterlimit:10;}
	.st40{fill:none;stroke:url(#SVGID_22_);stroke-width:0.5;stroke-miterlimit:10;}
	.st41{fill:none;stroke:url(#SVGID_23_);stroke-miterlimit:10;}
	.st42{fill:none;stroke:url(#SVGID_24_);stroke-linejoin:bevel;stroke-miterlimit:10;}
	.st43{fill:none;stroke:url(#SVGID_25_);stroke-width:0.5;stroke-miterlimit:10;}
	.st44{fill:none;stroke:url(#SVGID_26_);stroke-width:0.5;stroke-miterlimit:10;}
	.st45{fill:none;stroke:url(#SVGID_27_);stroke-linecap:round;stroke-linejoin:round;stroke-miterlimit:10;}
	.st46{fill:none;stroke:url(#SVGID_28_);stroke-miterlimit:10;}
	.st47{fill:none;stroke:url(#SVGID_29_);stroke-linecap:round;stroke-linejoin:bevel;stroke-miterlimit:10;}
	.st48{fill:none;stroke:url(#SVGID_30_);stroke-width:0.5;stroke-linejoin:bevel;stroke-miterlimit:10;}
	.st49{fill:none;stroke:url(#SVGID_31_);stroke-linejoin:bevel;stroke-miterlimit:10;}
	.st50{fill:none;stroke:url(#SVGID_32_);stroke-linecap:round;stroke-linejoin:round;stroke-miterlimit:10;}
	.st51{fill:none;stroke:url(#SVGID_33_);stroke-width:0.5;stroke-miterlimit:10;}
	.st52{fill:none;stroke:url(#SVGID_34_);stroke-linecap:round;stroke-linejoin:round;stroke-miterlimit:10;}
	.st53{fill:none;stroke:url(#SVGID_35_);stroke-width:0.5;stroke-miterlimit:10;}
	.st54{fill:none;stroke:url(#SVGID_36_);stroke-width:0.5;stroke-miterlimit:10;}
	.st55{fill:none;stroke:url(#SVGID_37_);stroke-width:0.5;stroke-miterlimit:10;}
	.st56{fill:none;stroke:url(#SVGID_38_);stroke-width:0.5;stroke-miterlimit:10;}
	.st57{fill:none;stroke:url(#SVGID_39_);stroke-width:0.5;stroke-miterlimit:10;}
	.st58{fill:none;stroke:url(#SVGID_40_);stroke-width:0.5;stroke-miterlimit:10;}
	.st59{fill:none;stroke:url(#SVGID_41_);stroke-width:0.5;stroke-miterlimit:10;}
	.st60{fill:none;stroke:url(#SVGID_42_);stroke-width:0.5;stroke-miterlimit:10;}
	.st61{fill:none;stroke:url(#SVGID_43_);stroke-width:0.5;stroke-miterlimit:10;}
	.st62{fill:none;stroke:url(#SVGID_44_);stroke-width:0.5;stroke-miterlimit:10;}
	.st63{opacity:0.2;fill:#FFFFFF;}
	.st64{opacity:0.1;}
</style>
<symbol  id="Bobo_techno" viewBox="-103.6 -105.6 207.3 211.3">
	<path class="st0" d="M-16.6,87.7c-22.2,0-59.3-22.2-50.7-57.7s27.8-49.3,58.4-49.3c17.7,0,56.1,10,56.1,54
		C47.2,70.7,11.5,87.7-16.6,87.7z"/>
	<g>
		<path class="st1" d="M31.8,63.5C18,69.8,2.9,61.4,1.5,47.5c0-0.5-0.1-1-0.3-2.1c-4.4,5.2-9.2,8.6-15.7,9.1
			c-4.9,0.4-9.5-0.6-13.6-3.2C-36,46.4-39.3,37-36.4,27.9c3.2-10.3,12.1-17,21.8-16.7c10.7,0.4,16.7,6.5,20.1,20.6
			c1-1.1,1.9-2.2,2.9-3.1c6.2-5.9,13.5-8.3,21.8-5.5C38.3,26,42.8,32,43.8,40.5C44.9,49.7,39.8,59.8,31.8,63.5z M-8.2,24.2
			c-2.7-2.1-5.7-2.3-8.7-1c-3.9,1.7-6.4,4.8-7.1,9c-0.7,4.2,0.6,8,4.2,10.6c3.1,2.3,6.7,2.1,9.9,0.1c3.3-2,4.7-5.2,5.4-9.2
			C-4.3,30.3-4.9,26.7-8.2,24.2z M30.6,35.1c-1.1-0.7-2.4-1.3-3.6-1.5c-5.6-1-11.4,3.9-12.2,10c-0.9,6.6,3.7,12.1,9.7,11.8
			c4.3-0.2,7.8-3.2,9.3-8.2C35.2,42.5,33.9,37.4,30.6,35.1z"/>
		<path class="st1" d="M-48.9,64c0-3.1,1.8-5.1,4.5-5.2c3.1,0,5.5,2.5,5.5,5.6c0,2.7-2.2,5.1-4.5,5.1C-46.7,69.6-48.9,67.4-48.9,64z
			"/>
	</g>
	<g>
		<path class="st1" d="M91,97.6c0.4-3.5,0.9-7.1,0.5-10.6c-0.3-3.1,1.8,0,1.8,1.1c0.3,1.6,0.4,2.5,0.6,3.5c0.7,4.4,0,8.6-1.9,12.6
			c-0.3,0.6-1.3,0.9-2,1.4c-0.2-0.7-0.6-1.5-0.5-2.2C89.9,101.5,90.7,99.6,91,97.6z"/>
		<path class="st1" d="M83.3,100.3c2.7-3.6,5.3-7.3,6.4-11.7c0.1-0.3,0.4-0.6,0.8-1c0.2,0.4,0.5,0.6,0.4,0.8c-0.5,5.1-1.8,9.9-5,14
			c-0.5,0.6-1.9,0.5-2.8,0.7C83.1,102.2,82.8,100.9,83.3,100.3z"/>
		<path class="st1" d="M83.7,85.8c-0.5-1.4,1.5-3.5,4.1-4.1c0.3,0.2,0.9,0.6,1.6,1.1c-1.3,1.4-2.6,2.8-4,4.1
			C85.2,87,83.9,86.3,83.7,85.8z"/>
		<path class="st1" d="M92.4,79.8c-0.3-0.6-0.7-1.2-0.9-1.8c-0.1-0.4,0.1-0.8,0.2-1.2c0.2-4.2,0.8-8.5,0.5-12.7
			c-0.6-8.1-5.3-14.9-10.9-20.5c-7.9-7.9-17.6-14.3-28.4-16.8c-1.3-0.3-2.7-0.4-4.1-0.6c1.9,18.7-5,34.3-19.1,47.1
			C8,92.7-24.3,94.7-47.7,78.5c-17.8-12.3-26-33.4-21.2-54.6c0.7-3.1,1.6-6,2.8-8.8c-2.7-0.9-5.5-1.7-8-3.1c-4.4-2.4-8.6-5-12.8-7.8
			c-7.6-5.1-13.3-11.8-16.3-20.6c-0.3-0.8-0.2-1.8-0.4-2.7c0.2-0.1,0.5-0.2,0.7-0.3c0.4,0.5,0.9,0.8,1.2,1.4
			c4,7.8,9.8,14.3,16.5,19.9c5.7,4.8,11.8,9,19.3,10.7c0.3,0.1,0.6,0.1,0.8,0.1C-58-2.7-44.3-12.9-30.3-18.4
			c1.3-0.5,2.6-1.5,3.5-2.6c6.1-7.7,7.7-16.7,6.3-26c-1.6-11.6-4.2-23-9.8-33.4c-2-3.7-4.8-7-7.3-10.4c-1-1.4-2.1-2.7-3.4-4.2
			c0.9-0.4,1.4-0.7,2-0.8c4.6-1.1,8.3-3.8,11.5-7.2c0.6-0.6,1.1-1.4,1.8-1.7c0.8-0.4,1.9-0.6,2.8-0.8c-0.2,1-0.1,2.2-0.6,2.9
			c-1.1,1.3-2.5,2.5-4,3.3c-3.6,1.8-7.4,3.4-11.5,5.3c1.2,1,2.5,2.1,3.8,3.3c6.5,6.2,10.6,13.7,12.8,22.3c1.3,5.2,2.7,10.5,3.7,15.8
			c2,11.5,0.5,22.4-6.4,32.6c1.6-0.3,2.9-0.5,4.2-0.7c10.3-2.1,20.4-1.6,30.4,1.3c1.8,0.5,2.9,0.2,4.2-1.1
			c11.8-11.9,16-26.1,13.4-42.6C25.5-73.5,23.7-83.6,19-93c-0.3-0.6-0.4-1.4-0.6-2.2c2.9-0.1,5.7,0.2,8.2-0.5
			c4.5-1.2,8.8-2.9,13.2-4.5c0.7-0.2,1.3-0.8,2.1-0.9c0.5-0.1,1.3,0.1,1.5,0.5c0.3,0.4,0.2,1.3,0,1.6c-0.8,0.8-1.7,1.6-2.7,2.2
			c-5.7,3-11.8,3.1-18.1,2.8c-0.4,0-0.8-0.1-1.2-0.1c-0.1,0-0.1,0.1-0.4,0.2C34-67.5,34.8-42,15.4-17.8c2.4,1.2,4.9,2.3,7.2,3.7
			C30.7-9.3,37.2-3,42,5.1c0,0,4.3,7,6.2,16.7c0.1,0.6,0.2,1.3,0.3,1.9c0.3,0,0.5,0.1,0.8,0.1c5.5,0.2,10.4,2.2,15.2,4.7
			c10.3,5.5,21,12,26.1,23c2.9,6.3,4.1,12.9,4.1,19.7c0,2.4-0.4,4.8-0.7,7.2C93.8,78.9,92.9,79.4,92.4,79.8z M36.1,2.1
			C24.9-12.2,9.7-18.5-8.2-18.7c-1.9,0-3.8,0-5.8,0c-0.6,0-1.2,0.1-1.7,0.2c-13,1.6-24,7.3-33.9,15.8c-21.9,18.8-22.6,53.8-1.2,73.2
			c26,23.5,69.9,17.6,88.7-12C49.6,40.2,49,18.5,36.1,2.1z"/>
		<path class="st1" d="M95.1,85.9c0.8,1.2,1.2,1.9,1.7,2.6c2.1,3.4,3,7,2.8,10.9c0,0.6-0.8,1.2-1.2,1.8c-0.4-0.5-1-1-1.2-1.6
			c-0.4-1.7-0.3-3.5-0.8-5.2c-0.9-3-1.7-6.1-3.2-8.8C91.9,83.2,94.7,85,95.1,85.9z"/>
		<path class="st1" d="M103.6,89.3c-0.5-0.1-1-0.1-1.3-0.4c-0.9-0.8-1.7-1.8-2.7-2.4C97.8,85.3,96,84,94,83.2
			c-1.7-0.7,0.6-0.9,1.2-0.6c0.9,0.3,1.5,0.5,2,0.7c2.6,0.9,4.7,2.5,6.3,4.6C103.7,88.2,103.6,88.8,103.6,89.3z"/>
	</g>
	<path class="st1" d="M-41.8,1.8c0-3.1,1.8-5.1,4.5-5.2c3.1,0,5.5,2.5,5.5,5.6c0,2.7-2.2,5.1-4.5,5.1C-39.6,7.4-41.8,5.2-41.8,1.8z"
		/>
</symbol>
<g id="Technology_3_">
	<g id="LavaShapes_2_">
		<g id="Opla.f-HomePage" transform="translate(-801.000000, -2809.000000)">
			<g id="_Section_IA" transform="translate(120.000000, 2756.000000)">
				<g id="Illu" transform="translate(659.000000, 0.000000)">
					<g id="LavaShapes_1_" transform="translate(22.000000, 53.000000)">
						<path id="Fill-1-Copy-3_1_" class="st2" d="M204.3,289.9c-13.1-35.8-27.5-71.1-47.1-104.8c-15.2-25.9-33.9-48.2-52.4-71.9
							C89.5,93.4,75.5,68.3,87,43c26.6-58.6,124.6-38.3,171.5-23.6C378.4,57,483.8,144,530.7,254.2c25.9,60.8,14.5,136.3-31.9,188.1
							c-50,55.7-145.6,76.3-205.2,26.5c-27.6-23.1-44.5-55.4-56.9-88.2C225.4,350.4,215.3,320,204.3,289.9l-70.6,26.6L204.3,289.9z"
							/>
						<path id="Fill-1-Copy_1_" class="st2" d="M317.1,299.7c-21.5,12.2-40.7,27-59.2,42.5c-15.6,13-30.8,26.6-46.7,39.5
							c-17.3,14.1-36.8,26.4-59.3,30.4c-48.6,8.5-94.7-33.1-104.5-79.5c-9.1-43.1,8.7-88.1,42.2-113.3
							c60.8-45.6,146.5-59.9,224.4-42.5c30.5,6.8,90.9,26.7,86.9,67.3c-1.7,17.5-17.4,26.8-32.1,32.8
							C351.1,284,333.7,290.3,317.1,299.7z"/>
					</g>
				</g>
			</g>
		</g>
	</g>
	<defs>
		<filter id="Adobe_OpacityMaskFilter" filterUnits="userSpaceOnUse" x="40.7" y="-140.3" width="621.9" height="724.2">
			<feColorMatrix  type="matrix" values="1 0 0 0 0  0 1 0 0 0  0 0 1 0 0  0 0 0 1 0"/>
		</filter>
	</defs>
	<mask maskUnits="userSpaceOnUse" x="40.7" y="-140.3" width="621.9" height="724.2" id="Reseau._ext_1_">
		<g class="st3">
			<g id="LavaShapes_3_" transform="translate(22.000000, 53.000000)">
				<path id="Fill-1-Copy-3_2_" class="st4" d="M182.3,236.9c-13.1-35.8-27.5-71.1-47.1-104.8c-15.2-25.9-33.9-48.2-52.4-71.9
					C67.5,40.4,53.5,15.3,65-10c26.6-58.6,124.6-38.3,171.5-23.6C356.4,4,461.8,91,508.7,201.2c25.9,60.8,14.5,136.3-31.9,188.1
					c-50,55.7-145.6,76.3-205.2,26.5c-27.6-23.1-44.5-55.4-56.9-88.2C203.4,297.4,193.3,267,182.3,236.9l-70.6,26.6L182.3,236.9z"/>
				<path id="Fill-1-Copy_2_" class="st5" d="M295.1,246.7c-21.5,12.2-40.7,27-59.2,42.5c-15.6,13-30.8,26.6-46.7,39.5
					c-17.3,14.1-36.8,26.4-59.3,30.4c-48.6,8.5-94.7-33.1-104.5-79.5c-9.1-43.1,8.7-88.1,42.2-113.3
					c60.8-45.6,146.5-59.9,224.4-42.5c30.5,6.8,90.9,26.7,86.9,67.3c-1.7,17.5-17.4,26.8-32.1,32.8
					C329.1,231,311.7,237.3,295.1,246.7z"/>
			</g>
			<path id="Bulle_7_" d="M385.4,348H72.7c-2.4,0-4.3-1.6-4.3-3.5V217.6c0-22.1,21.6-40,48.1-40h0h268.8c26.6,0,48.1,17.9,48.1,40v0
				v90.4C433.5,330,411.9,348,385.4,348L385.4,348z"/>
			<ellipse class="st6" cx="97.8" cy="350.1" rx="45.4" ry="39.8"/>
		</g>
	</mask>
	<g id="Reseau._ext" class="st7">
		<path class="st8" d="M536,237.3l1.2,0L536,237c0,0,0,0,0,0L489.3,73.1l0.4-0.3l-88.3-37.6l0.3-0.3l-0.6,0.2l-0.2-0.1l0,0
			c0,0,0,0,0,0c0,0-0.1,0-0.1,0l0,0c-1.7,0-116.8,39.2-131.3,44.2l-0.1-0.1l-0.3,0.2l-0.6,0.2l0.1,0.1l-54.8,33.6l0.4,0.2
			l-64.5,63.3l-0.3,0.3l36.6,3.1l-43.5,18.5l-0.3-0.5l-0.3,0.8c-0.1,0.1-0.2,0.2-0.2,0.3l0,0l0,0c0,0,0,0,0,0.1c0,0,0,0.1,0,0.1
			l-35.5,103.5l-0.1,0.3l-0.3,0.2l0.2,0l-0.1,0.2l0.6-0.1l19.1,7.6L86,325.1l-0.5-0.1l0.2,0.2l-0.5,0.2l0.7,0.1l56.5,83.3l-0.1,0
			l0,0.3l0.2,0.2c0,0,0.1,0,0.2,0.1l0,0l110,20.6l0,0c0,0,0,0,0.1,0c0,0,0,0,0,0c0,0,0,0,0.1,0l0,0l214.4-35.1l0-0.2l0.3-0.1
			L536,237.3z M200.6,384.2c9.2-4.1,18.6-8.3,26.8-12l3.2-1.4L252,429l-107.4-20.2C149,407.2,162.3,401.4,200.6,384.2z M347.7,53.6
			l32.8-11.1c9.6-3.2,16.5-5.5,19.2-6.3l-62.8,60.2l-66.3-16.7C291.8,72.5,321.8,62.3,347.7,53.6z M349.3,350.9l-64.2,6.4l28.7-64.8
			l0,0l24.7,40.6L349.3,350.9z M287.4,188.3l14.8-39.8l42.7,17.1l-50.4,23.5L287.4,188.3z M270.1,135.7l31.3,12.5l-14.7,39.4
			l-70.1-73.4L270.1,135.7z M358.6,303.3l-3.1,16l-40.1-26.8l43,10.6l-0.1,0.2L358.6,303.3z M256.3,243.9l19.8-14.6l35.8,60.5
			l-5.3-4.4L256.3,243.9z M313.5,290.7l-36.2-61l42.1,38L313.5,290.7z M320.2,268.3l11.3,10.2l-17,12.2L320.2,268.3z M319.6,267.1
			L277.4,229l51.4,2.2L319.6,267.1z M255.6,244.5l28.5,23.5l28.2,23.3l-111.6-6.5l53.7-39.4L255.6,244.5z M315.1,291.9l24.5-6.1
			l18.5,16.7L315.1,291.9z M315.8,290.8l1.4-1l15.7-10l5.9,5.3L315.8,290.8z M323.7,285.2l8.4-6.1l0.4,0.4L323.7,285.2z
			 M332.5,278.8l62.3-44.7l8.6,0.4L333,279.3L332.5,278.8z M331.8,278.2l-11.5-10.4l9.4-36.5l63.7,2.7L331.8,278.2z M373.2,198.1
			l-34.1-3.9l7.2-27.9L373.2,198.1z M339.1,194.7l34.6,3.9l11.6,13.7l-52.7,7.8L339.1,194.7z M374.3,198.7l58.3,6.6l-46.8,6.9
			L374.3,198.7z M373.9,198.2l-26.7-31.6l84.9,38.2L373.9,198.2z M328.9,230.8l-50.6-2.2l53.2-7.9L328.9,230.8z M255.6,243.3
			l-15-12.3l34.3-1.9L255.6,243.3z M355.8,320.5l17.4,11.6L350,350.6L355.8,320.5z M340.2,285.7l35.6-8.8l-16.9,25.7L340.2,285.7z
			 M339.4,285l-6-5.4l70-44.5l-26.9,40.8L339.4,285z M395.5,233.7l4.9-3.5l3.3,3.9L395.5,233.7z M394,233.6l-64.2-2.8l2.6-10.3
			l53.2-7.9l14.2,16.8L394,233.6z M386.1,212.6l46.8-6.9l-32.8,23.5L386.1,212.6z M347,165.5l32.4-21.1l53.6,59.7L347,165.5z
			 M345.4,166.4l-7.1,27.7l-42-4.8L345.4,166.4z M338.2,194.6l-6.6,25.7l-54.9,8.2l-0.1,0l0,0l9-34l10-4.6L338.2,194.6z
			 M276.2,228.1l-26.6-17l35.4-16.5L276.2,228.1z M275.3,228.6l-35.2,1.9l-11.6-9.6l20.1-9.4L275.3,228.6z M238.8,230.6l-15.3,0.8
			l4.3-9.9L238.8,230.6z M239.3,231.1l15.5,12.8l-54.3,39.9l22.8-51.8L239.3,231.1z M200.1,285.6l7.1,0.4l105.5,6.2l-60,68.1
			l-52.5-74.6L200.1,285.6z M314.7,293l39.5,26.4l1.2,0.8l-0.8,4.4l-4.9,25.8l-25-41.2L314.7,293z M427.7,288.8l-53.8,42.8l-18-12
			l3.1-16.4l31.9-6.7L427.7,288.8z M404.2,233.9L404.2,233.9L404.2,233.9l-3.5-4l30-21.6L404.2,233.9z M433.3,206.5l1.1-0.8
			l98.8,31.1l-128.5-2.7L433.3,206.5z M487.8,74.1l-53.7,130.6l-54.2-60.4l37.1-24.1L487.8,74.1z M347.1,164.4l16.1-38.2l15.7,17.5
			L347.1,164.4z M346.1,164.3l-8.9-66.9l25.2,28.1L346.1,164.3z M309.9,127.9l34.4,36.5l-32.6-13.1l-9.1-3.7L309.9,127.9z
			 M227.8,220.3l-29.1-39.1l2.6,0.2l46.4,29.6L227.8,220.3z M194.7,180.9l1.3,31.5l-5-1.3L194.7,180.9z M195.6,180.9l2,0.2l29,39.1
			l-29.7-7.5L195.6,180.9z M198.4,180.7l-1.7-2.2l3.8,2.4L198.4,180.7z M197.2,180.6l-1.7-0.1l-0.1-2.2L197.2,180.6z M189.1,226.4
			l1.8-14.4l5.2,1.3l0.8,19.6l-8.6,0.5L189.1,226.4z M196.9,213.6l30.1,7.6l-4.5,10.3l-24.8,1.4L196.9,213.6z M222.3,232l-22.5,51.2
			l-2.1-49.8L222.3,232z M252,360l-28.6-11.3l-22.6-61.3L252,360z M248.9,359.8l-23.3-5l-1.8-5L248.9,359.8z M253.7,360.5l58.4-66.2
			l-28,63.2L253.7,360.5L253.7,360.5z M373.6,332.4l90.9,60.8l-114.3-42.2L373.6,332.4z M422.8,289.4l-63.4,13.2l17-25.8l42-10.4
			l9.9,21.8L422.8,289.4z M377.2,275.7l27-40.9l13.9,30.8L377.2,275.7z M404.5,234.5l128.5,2.7l-114.5,28.2L404.5,234.5z
			 M454.7,94.5l-75.5,49l-15.9-17.7l14.8-35.3l109-17.1L454.7,94.5z M362.6,125l-25.3-28.1l39.7-6.2L362.6,125z M337.6,96.4
			l62.1-59.6l-22.5,53.4L337.6,96.4z M336.7,96.9l9,67.6L306,120.1l-35.6-39.8L336.7,96.9z M323.1,140.6l-13-13.8
			c-0.2-0.2-0.5-0.2-0.6,0c-0.1,0-0.1,0.1-0.1,0.2l0,0l-7.6,20.5L215.9,113l53.4-32.7l35.4,39.6L323.1,140.6z M287,189.3l0.2-0.6
			l6.6,0.7l-7.9,3.7l1.1-4L287,189.3z M194.5,178.1l-0.3,2.2l-5.5-0.5l5.7-2.4L194.5,178.1z M194.2,180.8l-3.7,30.2l-47-11.9
			l44.4-18.9L194.2,180.8z M190.4,211.9l-2.6,21.3l-44.1-33.1L190.4,211.9z M196.9,233.4l2,48l-10.6-47.5L196.9,233.4z M199,285.7
			l0,0.3l0.2-0.1l23,62.4l-94.5-37.4l70.4-25L199,285.7z M222.7,349.4l1.9,5.2L86.9,325.3l39.5-14L222.7,349.4z M283.9,357.9l-3,6.8
			l-25.4-4L283.9,357.9z M284.9,357.8l64.5-6.5l-0.1,0.3l0.3-0.2l0.2,0.3l0.1-0.3l113.9,42.1l-182-28.6L284.9,357.8z M390.6,342.8
			l-16.3-10.9l54-42.9l37.8,104.4L390.6,342.8z M428.6,287.9l-9.8-21.6l112.6-27.8L428.6,287.9z M378.4,90L401,36.1l86.5,36.8
			L378.4,90z M286.6,188.8L286.6,188.8l-1.2,4.7l-36.6,17.1l-45.4-29l83.2,7.1L286.6,188.8z M187.6,233.7l-13.9,11.9L144.1,201
			L187.6,233.7z M187.8,234.1l11,49.3l-24.9-37.5L187.8,234.1z M198.7,284.8l-90.9,17.5l65.4-55.8L198.7,284.8z M251.4,360.8
			L251.4,360.8c-2.8,1.1-9.8,4.1-20.4,8.8l-5.2-14.2L251.4,360.8z M252.7,428.4l-21.3-57.9l18.6-8.1c1.6-0.6,2.6-1,2.9-1l27.7,4.3
			l-1.3,3L252.7,428.4z M281.4,365.8l182.8,28.7L253.4,429L281.4,365.8z M467.1,393.2l-37.9-104.6L534.7,238L524,262.7L467.1,393.2z
			 M435.8,205.3l0.2,0l-0.5-0.1l-0.6-0.2l53.8-130.7l46.3,162.1L435.8,205.3z M150.4,176.6l64.2-63l71.3,74.6l-83.5-7.2l-7.3-4.7
			l-0.7-0.5l0,0.6l-7.6,3.2L150.4,176.6z M142.4,200.1l30.6,46L107.5,302L142.4,200.1z M108.3,303.1l86.9-16.7l-68.1,24.2
			L108.3,303.1z M224.8,355.1l5.5,14.8c-8.1,3.6-18.2,8.1-30,13.4c-4.9,2.2-9.9,4.4-14.8,6.6l-41.8,18.2c-0.5,0.2-0.8,0.3-0.9,0.3
			l0,0.1l-56.2-82.9L224.8,355.1z"/>
		<g>
			<polyline class="st9" points="642,281.9 535.2,238.5 662.5,240.6 			"/>
			<line class="st9" x1="535.2" y1="238.5" x2="653" y2="207.9"/>
			<line class="st9" x1="616.7" y1="393.5" x2="535.2" y2="238.5"/>
			<line class="st9" x1="467.2" y1="395" x2="523.5" y2="509.2"/>
			<line class="st9" x1="552" y1="473" x2="467.2" y2="395"/>
			<line class="st9" x1="467.2" y1="395" x2="489.9" y2="514.6"/>
			<line class="st9" x1="642.1" y1="402.4" x2="467.2" y2="395"/>
			<line class="st9" x1="467.2" y1="395" x2="315.1" y2="548.1"/>
			<line class="st9" x1="251.5" y1="430.5" x2="307.8" y2="544.7"/>
			<line class="st9" x1="336.3" y1="508.5" x2="251.5" y2="430.5"/>
			<line class="st9" x1="251.5" y1="430.5" x2="274.1" y2="550.1"/>
			<line class="st9" x1="86.9" y1="500.3" x2="251.5" y2="430.5"/>
			<line class="st9" x1="251.5" y1="430.5" x2="99.4" y2="583.5"/>
			<line class="st9" x1="489" y1="72.9" x2="596.9" y2="5.4"/>
			<line class="st9" x1="602.2" y1="51.2" x2="489" y2="72.9"/>
			<line class="st9" x1="489" y1="72.9" x2="490.2" y2="-70.9"/>
			<line class="st9" x1="641.7" y1="158.6" x2="489" y2="72.9"/>
			<line class="st9" x1="400.5" y1="35" x2="278.3" y2="-86.4"/>
			<line class="st9" x1="324.1" y1="-87.3" x2="400.5" y2="35"/>
			<line class="st9" x1="513.3" y1="-140.1" x2="400.5" y2="35"/>
			<line class="st9" x1="269.7" y1="79.8" x2="195" y2="-75.3"/>
			<line class="st9" x1="238.4" y1="-60.9" x2="269.7" y2="79.8"/>
			<line class="st9" x1="269.7" y1="79.8" x2="114.8" y2="-1.3"/>
			<line class="st9" x1="215.1" y1="113.4" x2="69" y2="22.2"/>
			<line class="st9" x1="113.4" y1="11.2" x2="215.1" y2="113.4"/>
			<line class="st9" x1="215.1" y1="113.4" x2="40.8" y2="145.6"/>
		</g>
		<path class="st10" d="M271.8,79.7c0,1.5-1.2,2.8-2.8,2.8c-1.5,0-2.8-1.2-2.8-2.8c0-1.5,1.2-2.8,2.8-2.8
			C270.6,77,271.8,78.2,271.8,79.7z M215,110.1c-1.8,0-3.3,1.5-3.3,3.3c0,1.8,1.5,3.3,3.3,3.3c1.8,0,3.3-1.5,3.3-3.3
			C218.3,111.6,216.8,110.1,215,110.1z M535.2,233.6c-2.7,0-4.8,2.2-4.8,4.8c0,2.7,2.2,4.8,4.8,4.8s4.8-2.2,4.8-4.8
			C540.1,235.8,537.9,233.6,535.2,233.6z M142.1,196c-1.8,0-3.3,1.5-3.3,3.3c0,1.8,1.5,3.3,3.3,3.3c1.8,0,3.3-1.5,3.3-3.3
			C145.4,197.4,144,196,142.1,196z M199.9,280.8c-2.4,0-4.3,1.9-4.3,4.3s1.9,4.3,4.3,4.3c2.4,0,4.3-1.9,4.3-4.3
			S202.2,280.8,199.9,280.8z M252.8,356.6c-2.4,0-4.3,1.9-4.3,4.3c0,2.4,1.9,4.3,4.3,4.3s4.3-1.9,4.3-4.3
			C257.1,358.5,255.2,356.6,252.8,356.6z M276.8,226.6c-1.2,0-2.2,1-2.2,2.2s1,2.2,2.2,2.2s2.2-1,2.2-2.2S278,226.6,276.8,226.6z
			 M404.2,232.1c-1.2,0-2.2,1-2.2,2.2s1,2.2,2.2,2.2c1.2,0,2.2-1,2.2-2.2S405.4,232.1,404.2,232.1z M188,231.5c-1.2,0-2.2,1-2.2,2.2
			s1,2.2,2.2,2.2c1.2,0,2.2-1,2.2-2.2S189.2,231.5,188,231.5z M194.9,174.6c-1.2,0-2.2,1-2.2,2.2c0,1.2,1,2.2,2.2,2.2s2.2-1,2.2-2.2
			C197.1,175.6,196.1,174.6,194.9,174.6z M78.5,198.8c-1.2,0-2.2,1-2.2,2.2c0,1.2,1,2.2,2.2,2.2c1.2,0,2.2-1,2.2-2.2
			C80.7,199.8,79.7,198.8,78.5,198.8z M45.6,148.6c-1.2,0-2.2,1-2.2,2.2c0,1.2,1,2.2,2.2,2.2c1.2,0,2.2-1,2.2-2.2
			C47.8,149.6,46.8,148.6,45.6,148.6z M142.7,406.8c-1.2,0-2.2,1-2.2,2.2s1,2.2,2.2,2.2c1.2,0,2.2-1,2.2-2.2
			S143.9,406.8,142.7,406.8z M286.5,186.3c-1.2,0-2.2,1-2.2,2.2s1,2.2,2.2,2.2s2.2-1,2.2-2.2S287.7,186.3,286.5,186.3z M337,94.6
			c-1.2,0-2.2,1-2.2,2.2s1,2.2,2.2,2.2s2.2-1,2.2-2.2S338.1,94.6,337,94.6z M358.9,300.8c-1.2,0-2.2,1-2.2,2.2s1,2.2,2.2,2.2
			c1.2,0,2.2-1,2.2-2.2S360.1,300.8,358.9,300.8z M86.1,323.2c-1.2,0-2.2,1-2.2,2.2c0,1.2,1,2.2,2.2,2.2c1.2,0,2.2-1,2.2-2.2
			C88.2,324.2,87.3,323.2,86.1,323.2z M350,349c-1.2,0-2.2,1-2.2,2.2s1,2.2,2.2,2.2s2.2-1,2.2-2.2S351.2,349,350,349z M252.2,427.4
			c-1.2,0-2.2,1-2.2,2.2s1,2.2,2.2,2.2c1.2,0,2.2-1,2.2-2.2S253.4,427.4,252.2,427.4z M428.6,286.3c-1.2,0-2.2,1-2.2,2.2
			c0,1.2,1,2.2,2.2,2.2c1.2,0,2.2-1,2.2-2.2C430.8,287.2,429.8,286.3,428.6,286.3z M345.7,161.9c-2.4,0-4.3,1.9-4.3,4.3
			c0,2.4,1.9,4.3,4.3,4.3c2.4,0,4.3-1.9,4.3-4.3C350,163.9,348.1,161.9,345.7,161.9z M227.7,216.6c-2.4,0-4.3,1.9-4.3,4.3
			c0,2.4,1.9,4.3,4.3,4.3c2.4,0,4.3-1.9,4.3-4.3C231.9,218.5,230,216.6,227.7,216.6z M434.3,201c-2.4,0-4.3,1.9-4.3,4.3
			c0,2.4,1.9,4.3,4.3,4.3c2.4,0,4.3-1.9,4.3-4.3C438.6,202.9,436.7,201,434.3,201z M313.7,287.5c-2.4,0-4.3,1.9-4.3,4.3
			c0,2.4,1.9,4.3,4.3,4.3s4.3-1.9,4.3-4.3C318,289.5,316,287.5,313.7,287.5z M468.8,390.3c-3.7-1.4-7.1,2-5.7,5.7
			c0.4,1,1.2,1.8,2.2,2.2c3.7,1.4,7.1-2,5.7-5.7C470.6,391.5,469.8,390.7,468.8,390.3z M107.1,299.9c-1.8,0-3.3,1.5-3.3,3.3
			c0,1.8,1.5,3.3,3.3,3.3c1.8,0,3.3-1.5,3.3-3.3C110.4,301.3,108.9,299.9,107.1,299.9z M488.6,69.9c-1.5,0-2.7,1.2-2.7,2.7
			c0,1.5,1.2,2.7,2.7,2.7c1.5,0,2.7-1.2,2.7-2.7C491.3,71.1,490.1,69.9,488.6,69.9z M400.8,32.8c-1.5,0-2.7,1.2-2.7,2.7
			c0,1.5,1.2,2.7,2.7,2.7c1.5,0,2.7-1.2,2.7-2.7C403.5,34,402.3,32.8,400.8,32.8z"/>
	</g>
	<defs>
		<filter id="Adobe_OpacityMaskFilter_1_" filterUnits="userSpaceOnUse" x="43.5" y="32.8" width="496.6" height="397.3">
			<feColorMatrix  type="matrix" values="1 0 0 0 0  0 1 0 0 0  0 0 1 0 0  0 0 0 1 0"/>
		</filter>
	</defs>
	<mask maskUnits="userSpaceOnUse" x="43.5" y="32.8" width="496.6" height="397.3" id="Bulle_1_">
		<g class="st11">
			<path id="Bulle_3_" class="st12" d="M385.4,348H72.7c-2.4,0-4.3-1.6-4.3-3.5V217.6c0-22.1,21.6-40,48.1-40h0h268.8
				c26.6,0,48.1,17.9,48.1,40v0v90.4C433.5,330,411.9,348,385.4,348L385.4,348z"/>
		</g>
	</mask>
	<g id="Bulle_5_" class="st13">
		<defs>
			<filter id="Adobe_OpacityMaskFilter_2_" filterUnits="userSpaceOnUse" x="68.4" y="177.6" width="365.1" height="170.4">
				<feColorMatrix  type="matrix" values="1 0 0 0 0  0 1 0 0 0  0 0 1 0 0  0 0 0 1 0"/>
			</filter>
		</defs>
		<mask maskUnits="userSpaceOnUse" x="68.4" y="177.6" width="365.1" height="170.4" id="Bulle_1_">
			<g class="st14">
				
					<radialGradient id="SVGID_1_" cx="318.9308" cy="199.7278" r="183.4382" gradientTransform="matrix(0.7747 0 0 0.7747 153.9249 156.7192)" gradientUnits="userSpaceOnUse">
					<stop  offset="0" style="stop-color:#7F7F7F"/>
					<stop  offset="1" style="stop-color:#FFFFFF"/>
				</radialGradient>
				<rect x="3.1" y="125.1" class="st15" width="492.1" height="266.9"/>
			</g>
		</mask>
		<path id="Bulle_10_" class="st16" d="M385.4,348H72.7c-2.4,0-4.3-1.6-4.3-3.5V217.6c0-22.1,21.6-40,48.1-40h0h268.8
			c26.6,0,48.1,17.9,48.1,40v0v90.4C433.5,330,411.9,348,385.4,348L385.4,348z"/>
		<defs>
			<filter id="Adobe_OpacityMaskFilter_3_" filterUnits="userSpaceOnUse" x="43.5" y="32.8" width="496.6" height="397.3">
				
					<feColorMatrix  type="matrix" values="-1 0 0 0 1  0 -1 0 0 1  0 0 -1 0 1  0 0 0 1 0" color-interpolation-filters="sRGB" result="source"/>
			</filter>
		</defs>
		<mask maskUnits="userSpaceOnUse" x="43.5" y="32.8" width="496.6" height="397.3" id="Reseau_2_">
			<g class="st17">
				<radialGradient id="SVGID_2_" cx="-1776.3284" cy="1665.975" r="183.4382" gradientUnits="userSpaceOnUse">
					<stop  offset="0" style="stop-color:#7F7F7F"/>
					<stop  offset="1" style="stop-color:#FFFFFF"/>
				</radialGradient>
				<rect x="-2289.9" y="1425.4" class="st18" width="635.2" height="344.5"/>
			</g>
		</mask>
		<g id="Reseau_1_" class="st19">
			<g class="st20">
				<linearGradient id="SVGID_3_" gradientUnits="userSpaceOnUse" x1="187.6725" y1="205.1318" x2="277.5531" y2="205.1318">
					<stop  offset="0" style="stop-color:#FFFFFF;stop-opacity:0.5"/>
					<stop  offset="1" style="stop-color:#FFFFFF"/>
				</linearGradient>
				<polygon class="st21" points="276.8,228.8 188,233.6 194.9,176.8 				"/>
				<linearGradient id="SVGID_4_" gradientUnits="userSpaceOnUse" x1="226.7529" y1="228.7012" x2="346.8228" y2="228.7012">
					<stop  offset="0" style="stop-color:#FFFFFF;stop-opacity:0.5"/>
					<stop  offset="1" style="stop-color:#FFFFFF"/>
				</linearGradient>
				<polygon class="st22" points="346.1,165.6 313.7,291.8 227.7,220.9 				"/>
				<linearGradient id="SVGID_5_" gradientUnits="userSpaceOnUse" x1="268.4961" y1="100.6184" x2="489.8024" y2="100.6184">
					<stop  offset="0" style="stop-color:#FFFFFF;stop-opacity:0.5"/>
					<stop  offset="1" style="stop-color:#FFFFFF"/>
				</linearGradient>
				<path class="st23" d="M400.8,35.5c-1.7,0-131.4,44.2-131.4,44.2l76.7,85.9l142.7-92.7L400.8,35.5z"/>
				<linearGradient id="SVGID_6_" gradientUnits="userSpaceOnUse" x1="213.7397" y1="122.9715" x2="347.8671" y2="122.9715">
					<stop  offset="0" style="stop-color:#FFFFFF;stop-opacity:0.5"/>
					<stop  offset="1" style="stop-color:#FFFFFF"/>
				</linearGradient>
				<polygon class="st24" points="214.9,113.1 269.4,79.7 346.1,165.6 				"/>
				<linearGradient id="SVGID_7_" gradientUnits="userSpaceOnUse" x1="214.3509" y1="166.9987" x2="346.5755" y2="166.9987">
					<stop  offset="0" style="stop-color:#FFFFFF;stop-opacity:0.5"/>
					<stop  offset="1" style="stop-color:#FFFFFF"/>
				</linearGradient>
				<polyline class="st25" points="227.7,220.9 346.1,165.6 214.9,113.1 				"/>
				<linearGradient id="SVGID_8_" gradientUnits="userSpaceOnUse" x1="105.813" y1="268.2991" x2="199.7732" y2="268.2991">
					<stop  offset="0" style="stop-color:#FFFFFF;stop-opacity:0.5"/>
					<stop  offset="1" style="stop-color:#FFFFFF"/>
				</linearGradient>
				<polygon class="st26" points="106.7,303 188,233.6 199.5,285.1 				"/>
				<linearGradient id="SVGID_9_" gradientUnits="userSpaceOnUse" x1="105.9431" y1="250.8138" x2="200.3053" y2="250.8138">
					<stop  offset="0" style="stop-color:#FFFFFF;stop-opacity:0.5"/>
					<stop  offset="1" style="stop-color:#FFFFFF"/>
				</linearGradient>
				<polygon class="st27" points="142.3,199.1 106.7,303 199.5,285.1 				"/>
				<linearGradient id="SVGID_10_" gradientUnits="userSpaceOnUse" x1="106.5118" y1="355.9784" x2="255.4337" y2="355.9784">
					<stop  offset="0" style="stop-color:#FFFFFF;stop-opacity:0.5"/>
					<stop  offset="1" style="stop-color:#FFFFFF"/>
				</linearGradient>
				<path class="st28" d="M106.7,303l146.1,57.9c-2.8,0-110.5,49.7-110.1,48.1"/>
				<linearGradient id="SVGID_11_" gradientUnits="userSpaceOnUse" x1="313.2855" y1="228.718" x2="404.5312" y2="228.718">
					<stop  offset="0" style="stop-color:#FFFFFF;stop-opacity:0.5"/>
					<stop  offset="1" style="stop-color:#FFFFFF"/>
				</linearGradient>
				<polygon class="st29" points="404.2,234.3 346.1,165.6 313.7,291.8 				"/>
				<linearGradient id="SVGID_12_" gradientUnits="userSpaceOnUse" x1="345.5755" y1="139.0757" x2="489.2425" y2="139.0757">
					<stop  offset="0" style="stop-color:#FFFFFF;stop-opacity:0.5"/>
					<stop  offset="1" style="stop-color:#FFFFFF"/>
				</linearGradient>
				<polygon class="st30" points="488.7,72.9 346.1,165.6 434.3,205.3 				"/>
				<linearGradient id="SVGID_13_" gradientUnits="userSpaceOnUse" x1="313.4067" y1="299.8621" x2="467.3398" y2="299.8621">
					<stop  offset="0" style="stop-color:#FFFFFF;stop-opacity:0.5"/>
					<stop  offset="1" style="stop-color:#FFFFFF"/>
				</linearGradient>
				<polyline class="st31" points="434.3,205.3 313.7,291.8 467.1,394.5 				"/>
				<linearGradient id="SVGID_14_" gradientUnits="userSpaceOnUse" x1="198.973" y1="256.3524" x2="314.1848" y2="256.3524">
					<stop  offset="0" style="stop-color:#FFFFFF;stop-opacity:0.5"/>
					<stop  offset="1" style="stop-color:#FFFFFF"/>
				</linearGradient>
				<polygon class="st32" points="199.5,285.1 313.7,291.8 227.7,220.9 				"/>
				<linearGradient id="SVGID_15_" gradientUnits="userSpaceOnUse" x1="252.4376" y1="343.1774" x2="467.3398" y2="343.1774">
					<stop  offset="0" style="stop-color:#FFFFFF;stop-opacity:0.5"/>
					<stop  offset="1" style="stop-color:#FFFFFF"/>
				</linearGradient>
				<polygon class="st33" points="467.1,394.5 252.8,360.8 313.7,291.8 				"/>
				<linearGradient id="SVGID_16_" gradientUnits="userSpaceOnUse" x1="149.3727" y1="150.7782" x2="287.5163" y2="150.7782">
					<stop  offset="0" style="stop-color:#FFFFFF;stop-opacity:0.5"/>
					<stop  offset="1" style="stop-color:#FFFFFF"/>
				</linearGradient>
				<polygon class="st34" points="214.9,113.1 149.9,176.8 286.9,188.5 				"/>
				<linearGradient id="SVGID_17_" gradientUnits="userSpaceOnUse" x1="214.3509" y1="96.4184" x2="269.8717" y2="96.4184">
					<stop  offset="0" style="stop-color:#FFFFFF;stop-opacity:0.5"/>
					<stop  offset="1" style="stop-color:#FFFFFF"/>
				</linearGradient>
				<line class="st35" x1="214.9" y1="113.1" x2="269.4" y2="79.7"/>
				<linearGradient id="SVGID_18_" gradientUnits="userSpaceOnUse" x1="309.7756" y1="127.0688" x2="309.7756" y2="127.0688">
					<stop  offset="0" style="stop-color:#FFFFFF;stop-opacity:0.5"/>
					<stop  offset="1" style="stop-color:#FFFFFF"/>
				</linearGradient>
				<path class="st36" d="M309.8,127.1"/>
				<linearGradient id="SVGID_19_" gradientUnits="userSpaceOnUse" x1="214.4894" y1="151.0919" x2="310.2441" y2="151.0919">
					<stop  offset="0" style="stop-color:#FFFFFF;stop-opacity:0.5"/>
					<stop  offset="1" style="stop-color:#FFFFFF"/>
				</linearGradient>
				<polyline class="st37" points="214.9,113.1 286.9,188.5 309.8,127.1 				"/>
				<linearGradient id="SVGID_20_" gradientUnits="userSpaceOnUse" x1="309.2756" y1="100.5419" x2="401.3046" y2="100.5419">
					<stop  offset="0" style="stop-color:#FFFFFF;stop-opacity:0.5"/>
					<stop  offset="1" style="stop-color:#FFFFFF"/>
				</linearGradient>
				<polyline class="st38" points="309.8,127.1 346.1,165.6 400.8,35.5 				"/>
				<linearGradient id="SVGID_21_" gradientUnits="userSpaceOnUse" x1="194.3981" y1="230.9527" x2="277.1519" y2="230.9527">
					<stop  offset="0" style="stop-color:#FFFFFF;stop-opacity:0.5"/>
					<stop  offset="1" style="stop-color:#FFFFFF"/>
				</linearGradient>
				<polygon class="st39" points="199.5,285.1 276.3,228.7 194.9,176.8 				"/>
				<linearGradient id="SVGID_22_" gradientUnits="userSpaceOnUse" x1="85.9723" y1="305.2299" x2="199.5566" y2="305.2299">
					<stop  offset="0" style="stop-color:#FFFFFF;stop-opacity:0.5"/>
					<stop  offset="1" style="stop-color:#FFFFFF"/>
				</linearGradient>
				<polyline class="st40" points="86.1,325.4 199.5,285.1 106.7,303 				"/>
				<linearGradient id="SVGID_23_" gradientUnits="userSpaceOnUse" x1="198.0594" y1="260.1739" x2="314.5947" y2="260.1739">
					<stop  offset="0" style="stop-color:#FFFFFF;stop-opacity:0.5"/>
					<stop  offset="1" style="stop-color:#FFFFFF"/>
				</linearGradient>
				<polygon class="st41" points="276.3,228.7 313.7,291.8 199.5,285.1 				"/>
				<linearGradient id="SVGID_24_" gradientUnits="userSpaceOnUse" x1="252.6019" y1="360.726" x2="467.3398" y2="360.726">
					<stop  offset="0" style="stop-color:#FFFFFF;stop-opacity:0.5"/>
					<stop  offset="1" style="stop-color:#FFFFFF"/>
				</linearGradient>
				<polygon class="st42" points="313.7,291.8 252.7,429.6 467.1,394.5 				"/>
				<linearGradient id="SVGID_25_" gradientUnits="userSpaceOnUse" x1="275.9295" y1="208.6191" x2="436.2368" y2="208.6191">
					<stop  offset="0" style="stop-color:#FFFFFF;stop-opacity:0.5"/>
					<stop  offset="1" style="stop-color:#FFFFFF"/>
				</linearGradient>
				<polygon class="st43" points="276.3,228.7 434.3,205.3 286.9,188.5 				"/>
				<linearGradient id="SVGID_26_" gradientUnits="userSpaceOnUse" x1="403.5487" y1="221.1714" x2="537.3357" y2="221.1714">
					<stop  offset="0" style="stop-color:#FFFFFF;stop-opacity:0.5"/>
					<stop  offset="1" style="stop-color:#FFFFFF"/>
				</linearGradient>
				<polygon class="st44" points="535.6,237.1 434.3,205.3 404.2,234.3 				"/>
				<linearGradient id="SVGID_27_" gradientUnits="userSpaceOnUse" x1="433.8122" y1="154.9918" x2="536.0883" y2="154.9918">
					<stop  offset="0" style="stop-color:#FFFFFF;stop-opacity:0.5"/>
					<stop  offset="1" style="stop-color:#FFFFFF"/>
				</linearGradient>
				<polygon class="st45" points="488.7,72.9 535.6,237.1 434.3,205.3 				"/>
				<linearGradient id="SVGID_28_" gradientUnits="userSpaceOnUse" x1="77.8882" y1="225.5932" x2="114.9349" y2="225.5932">
					<stop  offset="0" style="stop-color:#FFFFFF;stop-opacity:0.5"/>
					<stop  offset="1" style="stop-color:#FFFFFF"/>
				</linearGradient>
				<polygon class="st46" points="88.5,251 78.5,199.9 114.1,199.1 				"/>
				<linearGradient id="SVGID_29_" gradientUnits="userSpaceOnUse" x1="313.4067" y1="315.7386" x2="536.0467" y2="315.7386">
					<stop  offset="0" style="stop-color:#FFFFFF;stop-opacity:0.5"/>
					<stop  offset="1" style="stop-color:#FFFFFF"/>
				</linearGradient>
				<polygon class="st47" points="313.7,291.8 535.6,237.1 467.1,394.5 				"/>
				<linearGradient id="SVGID_30_" gradientUnits="userSpaceOnUse" x1="349.6229" y1="341.464" x2="467.1483" y2="341.464">
					<stop  offset="0" style="stop-color:#FFFFFF;stop-opacity:0.5"/>
					<stop  offset="1" style="stop-color:#FFFFFF"/>
				</linearGradient>
				<polyline class="st48" points="428.6,288.4 349.7,351.1 467.1,394.5 				"/>
				<linearGradient id="SVGID_31_" gradientUnits="userSpaceOnUse" x1="428.1617" y1="315.648" x2="535.8046" y2="315.648">
					<stop  offset="0" style="stop-color:#FFFFFF;stop-opacity:0.5"/>
					<stop  offset="1" style="stop-color:#FFFFFF"/>
				</linearGradient>
				<polygon class="st49" points="535.6,237.1 428.6,288.4 467.1,394.5 				"/>
				<linearGradient id="SVGID_32_" gradientUnits="userSpaceOnUse" x1="198.973" y1="357.3363" x2="314.1848" y2="357.3363">
					<stop  offset="0" style="stop-color:#FFFFFF;stop-opacity:0.5"/>
					<stop  offset="1" style="stop-color:#FFFFFF"/>
				</linearGradient>
				<polygon class="st50" points="199.5,285.1 313.7,291.8 252.7,429.6 				"/>
				<linearGradient id="SVGID_33_" gradientUnits="userSpaceOnUse" x1="141.6467" y1="205.2403" x2="195.2387" y2="205.2403">
					<stop  offset="0" style="stop-color:#FFFFFF;stop-opacity:0.5"/>
					<stop  offset="1" style="stop-color:#FFFFFF"/>
				</linearGradient>
				<polygon class="st51" points="142.1,199.2 188,233.6 194.9,176.8 				"/>
				<linearGradient id="SVGID_34_" gradientUnits="userSpaceOnUse" x1="141.6434" y1="198.8309" x2="228.1819" y2="198.8309">
					<stop  offset="0" style="stop-color:#FFFFFF;stop-opacity:0.5"/>
					<stop  offset="1" style="stop-color:#FFFFFF"/>
				</linearGradient>
				<polygon class="st52" points="142.1,199.2 227.7,220.9 194.9,176.8 				"/>
				<linearGradient id="SVGID_35_" gradientUnits="userSpaceOnUse" x1="276.0787" y1="265.9409" x2="404.6067" y2="265.9409">
					<stop  offset="0" style="stop-color:#FFFFFF;stop-opacity:0.5"/>
					<stop  offset="1" style="stop-color:#FFFFFF"/>
				</linearGradient>
				<polygon class="st53" points="276.8,228.8 404.2,234.3 358.9,303 				"/>
				<linearGradient id="SVGID_36_" gradientUnits="userSpaceOnUse" x1="313.1567" y1="321.6241" x2="359.2101" y2="321.6241">
					<stop  offset="0" style="stop-color:#FFFFFF;stop-opacity:0.5"/>
					<stop  offset="1" style="stop-color:#FFFFFF"/>
				</linearGradient>
				<polygon class="st54" points="349.7,351.1 358.9,303 313.7,291.8 				"/>
				<linearGradient id="SVGID_37_" gradientUnits="userSpaceOnUse" x1="349.3373" y1="319.8593" x2="429.6129" y2="319.8593">
					<stop  offset="0" style="stop-color:#FFFFFF;stop-opacity:0.5"/>
					<stop  offset="1" style="stop-color:#FFFFFF"/>
				</linearGradient>
				<polygon class="st55" points="428.6,288.4 358.9,303 349.7,351.1 				"/>
				<linearGradient id="SVGID_38_" gradientUnits="userSpaceOnUse" x1="358.378" y1="268.5645" x2="428.988" y2="268.5645">
					<stop  offset="0" style="stop-color:#FFFFFF;stop-opacity:0.5"/>
					<stop  offset="1" style="stop-color:#FFFFFF"/>
				</linearGradient>
				<polygon class="st56" points="404.2,234.3 428.6,288.4 358.9,303 				"/>
				<linearGradient id="SVGID_39_" gradientUnits="userSpaceOnUse" x1="268.4853" y1="65.9539" x2="401.7845" y2="65.9539">
					<stop  offset="0" style="stop-color:#FFFFFF;stop-opacity:0.5"/>
					<stop  offset="1" style="stop-color:#FFFFFF"/>
				</linearGradient>
				<polygon class="st57" points="269.4,79.7 337,96.7 400.8,35.5 				"/>
				<linearGradient id="SVGID_40_" gradientUnits="userSpaceOnUse" x1="336.4567" y1="139.1493" x2="489.1428" y2="139.1493">
					<stop  offset="0" style="stop-color:#FFFFFF;stop-opacity:0.5"/>
					<stop  offset="1" style="stop-color:#FFFFFF"/>
				</linearGradient>
				<polygon class="st58" points="488.7,72.9 337,96.7 434.3,205.3 				"/>
				<linearGradient id="SVGID_41_" gradientUnits="userSpaceOnUse" x1="309.5936" y1="131.5247" x2="346.4251" y2="131.5247">
					<stop  offset="0" style="stop-color:#FFFFFF;stop-opacity:0.5"/>
					<stop  offset="1" style="stop-color:#FFFFFF"/>
				</linearGradient>
				<polyline class="st59" points="337,96.7 346.1,165.6 309.8,127.1 				"/>
				<linearGradient id="SVGID_42_" gradientUnits="userSpaceOnUse" x1="85.1382" y1="323.0129" x2="253.3841" y2="323.0129">
					<stop  offset="0" style="stop-color:#FFFFFF;stop-opacity:0.5"/>
					<stop  offset="1" style="stop-color:#FFFFFF"/>
				</linearGradient>
				<polygon class="st60" points="199.5,285.1 86.1,325.4 252.8,360.8 				"/>
				<linearGradient id="SVGID_43_" gradientUnits="userSpaceOnUse" x1="85.5005" y1="367.0958" x2="253.6264" y2="367.0958">
					<stop  offset="0" style="stop-color:#FFFFFF;stop-opacity:0.5"/>
					<stop  offset="1" style="stop-color:#FFFFFF"/>
				</linearGradient>
				<polygon class="st61" points="142.7,408.9 86.1,325.4 252.8,360.8 				"/>
				<linearGradient id="SVGID_44_" gradientUnits="userSpaceOnUse" x1="252.2039" y1="326.2705" x2="350.1291" y2="326.2705">
					<stop  offset="0" style="stop-color:#FFFFFF;stop-opacity:0.5"/>
					<stop  offset="1" style="stop-color:#FFFFFF"/>
				</linearGradient>
				<polygon class="st62" points="349.7,351.1 252.8,360.8 313.7,291.8 				"/>
			</g>
			<g>
				<circle class="st12" cx="269.1" cy="79.7" r="2.8"/>
				<path class="st12" d="M218.3,113.4c0,1.8-1.5,3.3-3.3,3.3c-1.8,0-3.3-1.5-3.3-3.3c0-1.8,1.5-3.3,3.3-3.3
					C216.8,110.1,218.3,111.6,218.3,113.4z"/>
				<circle class="st12" cx="535.2" cy="238.5" r="4.8"/>
				<path class="st12" d="M145.4,199.2c0,1.8-1.5,3.3-3.3,3.3c-1.8,0-3.3-1.5-3.3-3.3c0-1.8,1.5-3.3,3.3-3.3
					C144,196,145.4,197.4,145.4,199.2z"/>
				<circle class="st12" cx="199.9" cy="285.1" r="4.3"/>
				<circle class="st12" cx="252.8" cy="360.8" r="4.3"/>
				<circle class="st12" cx="276.8" cy="228.8" r="2.2"/>
				<path class="st12" d="M406.3,234.3c0,1.2-1,2.2-2.2,2.2c-1.2,0-2.2-1-2.2-2.2s1-2.2,2.2-2.2
					C405.4,232.1,406.3,233.1,406.3,234.3z"/>
				<circle class="st12" cx="188" cy="233.6" r="2.2"/>
				<path class="st12" d="M197.1,176.8c0,1.2-1,2.2-2.2,2.2s-2.2-1-2.2-2.2c0-1.2,1-2.2,2.2-2.2S197.1,175.6,197.1,176.8z"/>
				<path class="st12" d="M80.7,201c0,1.2-1,2.2-2.2,2.2c-1.2,0-2.2-1-2.2-2.2c0-1.2,1-2.2,2.2-2.2C79.7,198.8,80.7,199.8,80.7,201z
					"/>
				<circle class="st12" cx="45.6" cy="150.8" r="2.2"/>
				<path class="st12" d="M144.9,408.9c0,1.2-1,2.2-2.2,2.2c-1.2,0-2.2-1-2.2-2.2s1-2.2,2.2-2.2
					C143.9,406.8,144.9,407.7,144.9,408.9z"/>
				<circle class="st12" cx="286.5" cy="188.5" r="2.2"/>
				<circle class="st12" cx="337" cy="96.7" r="2.2"/>
				<circle class="st12" cx="358.9" cy="303" r="2.2"/>
				<path class="st12" d="M88.2,325.4c0,1.2-1,2.2-2.2,2.2c-1.2,0-2.2-1-2.2-2.2c0-1.2,1-2.2,2.2-2.2
					C87.3,323.2,88.2,324.2,88.2,325.4z"/>
				<circle class="st12" cx="350" cy="351.1" r="2.2"/>
				<path class="st12" d="M430.8,288.4c0,1.2-1,2.2-2.2,2.2c-1.2,0-2.2-1-2.2-2.2c0-1.2,1-2.2,2.2-2.2
					C429.8,286.3,430.8,287.2,430.8,288.4z"/>
				<circle class="st12" cx="345.7" cy="166.2" r="4.3"/>
				<circle class="st12" cx="227.7" cy="220.9" r="4.3"/>
				<circle class="st12" cx="434.3" cy="205.3" r="4.3"/>
				<circle class="st12" cx="313.7" cy="291.8" r="4.3"/>
				<path class="st12" d="M110.4,303.2c0,1.8-1.5,3.3-3.3,3.3c-1.8,0-3.3-1.5-3.3-3.3c0-1.8,1.5-3.3,3.3-3.3
					C108.9,299.9,110.4,301.3,110.4,303.2z"/>
				<path class="st12" d="M491.3,72.6c0,1.5-1.2,2.7-2.7,2.7c-1.5,0-2.7-1.2-2.7-2.7c0-1.5,1.2-2.7,2.7-2.7
					C490.1,69.9,491.3,71.1,491.3,72.6z"/>
				<path class="st12" d="M403.5,35.5c0,1.5-1.2,2.7-2.7,2.7c-1.5,0-2.7-1.2-2.7-2.7c0-1.5,1.2-2.7,2.7-2.7
					C402.3,32.8,403.5,34,403.5,35.5z"/>
			</g>
		</g>
		<path id="Billes_2_" class="st63" d="M212.7,338.7c0,0.1,0,0.2,0,0.2c0,0,0,0,0,0c-0.1,0-0.2-0.1-0.3-0.2c0-0.1,0-0.3,0.1-0.3
			C212.5,338.4,212.6,338.5,212.7,338.7z M217.2,284.8c-0.1,0.2-0.1,0.5,0.1,0.8c0.2,0.2,0.4,0.3,0.5,0.2c0,0,0.1,0,0.1-0.1
			c0.1-0.2,0.1-0.5-0.1-0.8C217.6,284.7,217.3,284.6,217.2,284.8z M213.9,191.5L213.9,191.5c0.4-0.2,0.4-0.9,0.1-1.6
			c-0.4-0.7-0.9-1-1.3-0.8c-0.4,0.2-0.4,0.9-0.1,1.6C212.9,191.3,213.5,191.7,213.9,191.5z M214.4,185
			C214.4,184.9,214.5,184.9,214.4,185c0.5-0.2,0.6-0.9,0.3-1.6c-0.3-0.7-1-1.2-1.4-1.1c-0.5,0.1-0.6,0.8-0.3,1.6
			C213.3,184.6,213.9,185.1,214.4,185z M220.5,323.7C220.6,323.7,220.6,323.7,220.5,323.7c0.1-0.1,0.1-0.3,0-0.5
			c-0.1-0.2-0.3-0.3-0.4-0.2c-0.1,0.1-0.1,0.3,0,0.5C220.3,323.7,220.4,323.8,220.5,323.7z M219.9,259.9
			C220,259.9,220,259.8,219.9,259.9c0.2-0.3,0.2-0.7-0.1-1.1c-0.3-0.3-0.6-0.4-0.7-0.2c-0.1,0.2-0.1,0.7,0.2,1
			C219.5,259.9,219.8,260,219.9,259.9z M214.5,200.2C214.6,200.2,214.6,200.2,214.5,200.2c0.4-0.3,0.4-1,0-1.5
			c-0.4-0.6-0.9-0.8-1.2-0.6c-0.3,0.3-0.3,0.9,0.1,1.5C213.7,200.1,214.2,200.4,214.5,200.2z M222.2,233.4c-0.2,0.2-0.1,0.7,0.2,1.1
			c0.2,0.3,0.5,0.4,0.7,0.3c0,0,0.1-0.1,0.1-0.1c0.2-0.2,0.1-0.7-0.2-1.1C222.7,233.3,222.3,233.2,222.2,233.4z M219.4,222.2
			c0.2-0.3,0.1-0.8-0.2-1.3c-0.3-0.4-0.7-0.6-1-0.3c-0.2,0.3-0.1,0.8,0.2,1.3c0.3,0.4,0.6,0.5,0.9,0.4
			C219.3,222.2,219.4,222.2,219.4,222.2z M216.4,210.6C216.4,210.6,216.5,210.6,216.4,210.6c0.4-0.3,0.3-1,0-1.5
			c-0.3-0.5-0.8-0.7-1.1-0.4c-0.3,0.3-0.2,0.9,0.1,1.4C215.7,210.5,216.1,210.7,216.4,210.6z M209.6,330.6
			C209.6,330.6,209.6,330.6,209.6,330.6c0.1-0.1,0.1-0.2,0-0.4c-0.1-0.2-0.3-0.3-0.4-0.3c-0.1,0-0.1,0.2,0,0.4
			C209.3,330.5,209.4,330.6,209.6,330.6z M209.4,296.7C209.5,296.7,209.5,296.6,209.4,296.7c0.2-0.2,0.2-0.6,0-0.9
			c-0.2-0.3-0.5-0.4-0.6-0.2c-0.1,0.2-0.1,0.5,0.1,0.8C209.1,296.6,209.3,296.7,209.4,296.7z M210.5,232.6c0,0,0.1-0.1,0.1-0.1
			c0.2-0.3,0.1-0.8-0.2-1.3c-0.3-0.4-0.7-0.6-1-0.3c-0.2,0.3-0.1,0.8,0.2,1.3C209.9,232.6,210.3,232.7,210.5,232.6z M211.2,270.1
			c-0.2,0.2-0.1,0.6,0.2,1c0.2,0.3,0.5,0.4,0.6,0.3c0,0,0.1,0,0.1-0.1c0.2-0.2,0.1-0.6-0.2-1C211.7,269.9,211.3,269.8,211.2,270.1z
			 M228.1,212.1C228.2,212.1,228.2,212,228.1,212.1c0.3-0.3,0.3-0.9-0.1-1.3c-0.3-0.4-0.7-0.6-1-0.3c-0.2,0.3-0.2,0.8,0.2,1.3
			C227.5,212,227.9,212.2,228.1,212.1z M215.1,310.6C215.2,310.6,215.2,310.6,215.1,310.6c0.2-0.2,0.1-0.5,0-0.7s-0.4-0.3-0.5-0.2
			c-0.1,0.1-0.1,0.4,0.1,0.6C214.8,310.6,215,310.7,215.1,310.6z M214.9,245.9c0,0,0.1-0.1,0.1-0.1c0.2-0.2,0.1-0.7-0.2-1.1
			c-0.3-0.4-0.7-0.5-0.8-0.2c-0.2,0.2-0.1,0.7,0.2,1.1C214.4,245.9,214.7,246,214.9,245.9z M216.6,179.4c-0.3-0.8-1-1.4-1.5-1.4
			c-0.5,0.1-0.7,0.8-0.5,1.6c0.3,0.8,1,1.4,1.5,1.4c0.1,0,0.2,0,0.2-0.1C216.7,180.7,216.8,180,216.6,179.4z M229.6,313.7
			c-0.1,0.1-0.1,0.3,0.1,0.5c0.1,0.2,0.3,0.2,0.3,0.2c0,0,0,0,0,0c0.1-0.1,0.1-0.3-0.1-0.5C229.9,313.7,229.7,313.6,229.6,313.7z
			 M232.4,261.2c-0.1,0.2,0,0.6,0.2,0.8c0.2,0.2,0.4,0.3,0.5,0.2c0,0,0.1,0,0.1-0.1c0.1-0.2,0-0.6-0.2-0.8
			C232.8,261.1,232.6,261,232.4,261.2z M207.1,220.1c0,0,0.1,0,0.1-0.1c0.3-0.3,0.2-0.9-0.2-1.4c-0.3-0.5-0.8-0.7-1.1-0.4
			c-0.3,0.3-0.2,0.9,0.2,1.4C206.4,220.1,206.8,220.3,207.1,220.1z M231.8,288.9C231.9,288.9,231.9,288.8,231.8,288.9
			c0.2-0.2,0.1-0.5-0.1-0.7c-0.2-0.2-0.4-0.3-0.5-0.1c-0.1,0.2,0,0.5,0.1,0.7C231.6,288.9,231.7,288.9,231.8,288.9z M231.4,223.7
			c0.2-0.2,0.1-0.7-0.2-1.1c-0.3-0.4-0.7-0.5-0.8-0.2c-0.2,0.2-0.1,0.7,0.2,1.1c0.2,0.3,0.5,0.4,0.7,0.3
			C231.4,223.8,231.4,223.8,231.4,223.7z M241.1,181.2c0.3-0.2,0.4-0.7,0.2-1.4c-0.3-0.8-0.9-1.3-1.4-1.3c-0.5,0-0.7,0.7-0.4,1.4
			c0.3,0.8,0.9,1.3,1.4,1.3C240.9,181.2,241,181.2,241.1,181.2z M240.4,250C240.4,250,240.4,249.9,240.4,250
			c0.2-0.3,0.1-0.7-0.1-0.9c-0.2-0.2-0.5-0.3-0.6-0.1c-0.1,0.2,0,0.6,0.2,0.8C240,250,240.2,250.1,240.4,250z M228.3,178.7
			c0.3,0.8,0.9,1.5,1.5,1.4c0.1,0,0.2,0,0.3-0.1c0.4-0.2,0.5-0.8,0.3-1.4c-0.1-0.4-0.4-0.8-0.7-1.1h-1.3
			C228.1,177.9,228.1,178.3,228.3,178.7z M235.8,178.5c0.1,0,0.2,0,0.3-0.1c0.2-0.1,0.4-0.4,0.4-0.8h-2
			C234.9,178.1,235.4,178.4,235.8,178.5z M225.2,192.9C225.3,192.9,225.3,192.9,225.2,192.9C225.3,192.9,225.3,192.9,225.2,192.9
			c0.4-0.2,0.4-0.9,0.1-1.5c-0.3-0.6-0.9-0.9-1.2-0.7c-0.4,0.2-0.4,0.8,0,1.4C224.4,192.7,224.9,193.1,225.2,192.9z M224.4,185.5
			c0.3,0.7,0.9,1.1,1.3,1c0,0,0.1,0,0.1,0c0.4-0.2,0.4-0.8,0.1-1.4c-0.3-0.7-0.9-1.1-1.3-1l0,0C224.2,184.1,224.1,184.8,224.4,185.5
			z M223.4,299.4c-0.1,0.1-0.1,0.4,0.1,0.7c0.1,0.2,0.3,0.3,0.4,0.2c0,0,0,0,0.1,0c0.1-0.1,0.1-0.4-0.1-0.7
			C223.7,299.4,223.5,299.3,223.4,299.4z M227.7,248.3c0,0,0.1-0.1,0.1-0.1c0.1-0.2,0.1-0.7-0.2-1c-0.3-0.3-0.6-0.4-0.7-0.2
			c-0.1,0.2-0.1,0.7,0.2,1C227.3,248.2,227.5,248.4,227.7,248.3z M239.7,213C239.8,213,239.8,213,239.7,213c0.3-0.3,0.2-0.8-0.1-1.2
			c-0.3-0.4-0.7-0.5-0.8-0.3c-0.2,0.2-0.1,0.7,0.2,1.1C239.2,213,239.5,213.2,239.7,213z M227.4,182.5c0.1,0,0.1,0,0.2-0.1
			c0.4-0.2,0.4-0.8,0.2-1.4c-0.3-0.7-0.9-1.3-1.4-1.2c-0.5,0.1-0.7,0.7-0.4,1.5C226.2,182,226.9,182.5,227.4,182.5z M225.7,274.3
			C225.7,274.3,225.7,274.2,225.7,274.3c0.2-0.3,0.1-0.6-0.1-0.9c-0.2-0.3-0.5-0.3-0.6-0.1c-0.1,0.2-0.1,0.5,0.2,0.8
			C225.3,274.3,225.5,274.3,225.7,274.3z M226.1,201.6C226.1,201.6,226.1,201.6,226.1,201.6c0.3-0.3,0.3-0.9,0-1.4
			c-0.3-0.5-0.8-0.7-1.1-0.5c-0.3,0.2-0.2,0.9,0.1,1.4C225.3,201.5,225.8,201.8,226.1,201.6z M225,335.1c-0.1,0-0.1,0.2,0,0.3
			c0.1,0.1,0.2,0.2,0.3,0.2c0.1,0,0.1-0.2,0-0.3C225.2,335.1,225.1,335.1,225,335.1z M179.4,193.3
			C179.4,193.3,179.4,193.3,179.4,193.3c0.5-0.3,0.5-1.1,0.1-1.9c-0.4-0.8-1.1-1.2-1.6-0.9c-0.5,0.3-0.5,1.1-0.1,1.9
			C178.2,193.1,178.9,193.6,179.4,193.3z M183.4,262.2c-0.2,0.3-0.1,0.8,0.2,1.2c0.3,0.4,0.6,0.5,0.9,0.4c0,0,0.1,0,0.1-0.1
			c0.2-0.3,0.1-0.8-0.2-1.3C184,262,183.6,261.9,183.4,262.2z M195,292.6C195,292.6,195,292.6,195,292.6c0.2-0.3,0.2-0.7,0-1
			c-0.2-0.3-0.6-0.5-0.7-0.3c-0.2,0.2-0.1,0.6,0.1,0.9C194.5,292.6,194.8,292.7,195,292.6z M194.7,217.5
			C194.8,217.5,194.8,217.4,194.7,217.5c0.4-0.3,0.3-1,0-1.6c-0.4-0.6-0.9-0.8-1.2-0.5c-0.3,0.3-0.3,1,0.1,1.5
			C193.9,217.4,194.4,217.6,194.7,217.5z M185,226.5c0,0,0.1,0,0.1-0.1c0.3-0.3,0.2-1-0.1-1.5c-0.4-0.6-0.9-0.8-1.2-0.5
			c-0.3,0.3-0.2,1,0.1,1.5C184.3,226.4,184.7,226.6,185,226.5z M185.5,301.9C185.5,301.9,185.5,301.9,185.5,301.9
			c0.2-0.2,0.2-0.6,0-1c-0.2-0.4-0.6-0.5-0.7-0.3c-0.2,0.2-0.2,0.6,0.1,0.9C185,301.9,185.3,302,185.5,301.9z M193.7,325.2
			C193.7,325.2,193.8,325.2,193.7,325.2c0.2-0.1,0.2-0.3,0.1-0.5c-0.1-0.3-0.3-0.4-0.5-0.4c-0.2,0-0.2,0.3-0.1,0.5
			C193.3,325,193.6,325.2,193.7,325.2z M192.5,206.1C192.5,206.1,192.5,206.1,192.5,206.1c0.4-0.3,0.4-1.1,0-1.7
			c-0.4-0.6-1-0.9-1.3-0.6c-0.3,0.3-0.3,1,0.1,1.6C191.6,206,192.1,206.3,192.5,206.1z M193.2,253.5c0,0,0.1-0.1,0.1-0.1
			c0.2-0.3,0.1-0.8-0.2-1.3c-0.3-0.4-0.8-0.6-1-0.3c-0.2,0.3-0.1,0.8,0.2,1.3C192.6,253.4,192.9,253.6,193.2,253.5z M177.6,318.4
			C177.6,318.4,177.6,318.4,177.6,318.4C177.6,318.4,177.6,318.4,177.6,318.4L177.6,318.4z M179.3,185
			C179.4,185,179.4,185,179.3,185c0.5-0.3,0.6-1.1,0.2-1.9c-0.4-0.9-1.2-1.4-1.7-1.2c-0.5,0.2-0.6,1.1-0.2,1.9
			C178.1,184.7,178.8,185.2,179.3,185z M182.3,214.3C182.3,214.3,182.3,214.3,182.3,214.3c0.4-0.3,0.4-1.1,0-1.7
			c-0.4-0.6-1-0.9-1.3-0.6c-0.4,0.3-0.3,1,0.1,1.6C181.4,214.2,181.9,214.5,182.3,214.3z M239.2,276.7
			C239.2,276.7,239.2,276.6,239.2,276.7c0.2-0.2,0.1-0.5-0.1-0.7c-0.2-0.2-0.4-0.2-0.5-0.1c-0.1,0.2,0,0.5,0.2,0.7
			C238.9,276.7,239.1,276.7,239.2,276.7z M191.2,196C191.2,196,191.2,196,191.2,196c0.4-0.3,0.4-1.1,0-1.8c-0.4-0.7-1-1.1-1.5-0.8
			c-0.4,0.3-0.4,1,0,1.7C190.1,195.9,190.8,196.3,191.2,196z M177.4,319c0.1,0.3,0.4,0.6,0.6,0.5c0,0,0,0,0.1,0
			c0.2-0.1,0.2-0.4,0.1-0.6c-0.1-0.3-0.4-0.6-0.6-0.5C177.4,318.4,177.3,318.7,177.4,319z M181.2,329.2c0,0.2,0.2,0.4,0.3,0.4
			c0.1,0,0.1,0,0.1,0c0.1,0,0.1-0.1,0.1-0.3c0-0.2-0.2-0.4-0.3-0.4C181.3,328.9,181.2,329,181.2,329.2z M180.6,288.2
			C180.6,288.2,180.6,288.2,180.6,288.2c0.3-0.3,0.2-0.8,0-1.1c-0.3-0.4-0.7-0.5-0.9-0.3l0,0c-0.2,0.2-0.2,0.7,0.1,1.1
			C180,288.2,180.3,288.4,180.6,288.2z M179.8,325.2c-0.2,0-0.3,0.2-0.2,0.4c0.1,0.3,0.3,0.5,0.5,0.5c0,0,0.1,0,0.1,0
			c0.1-0.1,0.2-0.2,0.1-0.4C180.2,325.4,180,325.2,179.8,325.2z M205.2,319.3C205.2,319.3,205.3,319.2,205.2,319.3
			c0.2-0.1,0.1-0.4,0-0.6c-0.1-0.2-0.4-0.4-0.5-0.3c-0.1,0.1-0.1,0.4,0,0.6C204.9,319.2,205.1,319.3,205.2,319.3z M202.9,198.3
			C202.9,198.3,202.9,198.3,202.9,198.3c0.4-0.3,0.4-1,0-1.6c-0.4-0.6-1-1-1.3-0.7c-0.4,0.3-0.4,1,0,1.6
			C202,198.2,202.5,198.5,202.9,198.3z M204.5,208.6C204.5,208.6,204.6,208.6,204.5,208.6c0.4-0.3,0.3-1,0-1.6
			c-0.4-0.6-0.9-0.8-1.2-0.5c-0.3,0.3-0.3,1,0.1,1.5C203.7,208.5,204.2,208.8,204.5,208.6z M203.7,282.3
			C203.7,282.3,203.8,282.2,203.7,282.3c0.2-0.3,0.2-0.7-0.1-1c-0.2-0.3-0.6-0.4-0.7-0.2c-0.2,0.2-0.1,0.6,0.1,1
			C203.3,282.3,203.5,282.4,203.7,282.3z M205.7,255.5c-0.2,0.2-0.1,0.7,0.2,1.1c0.2,0.3,0.5,0.4,0.7,0.3c0,0,0.1-0.1,0.1-0.1
			c0,0,0,0,0,0c0.2-0.2,0.1-0.7-0.2-1.1C206.2,255.4,205.9,255.3,205.7,255.5z M191.7,181c0,0,0.1,0,0.1-0.1c0.4-0.2,0.5-1,0.2-1.7
			c-0.4-0.9-1.1-1.5-1.7-1.3c-0.6,0.1-0.7,1-0.3,1.8C190.4,180.6,191.1,181.2,191.7,181z M201.1,187.1c-0.4,0.2-0.5,1-0.1,1.7
			c0.4,0.7,1,1.1,1.5,0.9c0,0,0,0,0,0c0.4-0.2,0.5-1,0.1-1.7C202.2,187.3,201.5,186.9,201.1,187.1z M203.1,183.2c0,0,0.1,0,0.1,0
			c0.4-0.2,0.5-0.9,0.2-1.7c-0.3-0.8-1-1.3-1.5-1.2c-0.5,0.1-0.6,0.9-0.3,1.7C201.9,182.7,202.5,183.3,203.1,183.2z M199.6,305.4
			c-0.2,0.1-0.1,0.5,0.1,0.8c0.2,0.3,0.4,0.4,0.6,0.3c0,0,0,0,0,0c0.2-0.1,0.1-0.5-0.1-0.8C200.1,305.3,199.8,305.2,199.6,305.4z
			 M201,242.6c0.3,0.4,0.6,0.5,0.9,0.4c0,0,0.1-0.1,0.1-0.1c0.2-0.3,0.1-0.8-0.2-1.3c-0.3-0.4-0.7-0.6-1-0.3
			C200.6,241.6,200.7,242.2,201,242.6z M190.1,313.8c-0.2-0.3-0.5-0.5-0.6-0.3c-0.2,0.1-0.2,0.4,0,0.8c0.2,0.3,0.4,0.4,0.6,0.4
			c0,0,0,0,0,0c0,0,0,0,0,0C190.2,314.4,190.2,314.1,190.1,313.8z M188.8,239.5c0.3-0.3,0.2-0.9-0.2-1.4c-0.3-0.5-0.8-0.7-1.1-0.4
			c-0.3,0.3-0.2,0.9,0.2,1.4c0.3,0.4,0.7,0.6,1,0.5C188.8,239.6,188.8,239.6,188.8,239.5z M189.6,278.3
			C189.6,278.3,189.6,278.2,189.6,278.3c0.3-0.3,0.2-0.8-0.1-1.2c-0.3-0.4-0.7-0.5-0.9-0.3c-0.2,0.2-0.1,0.7,0.2,1.1
			C189.1,278.3,189.4,278.4,189.6,278.3z M189.5,184.7c-0.5,0.2-0.5,1-0.1,1.8c0.4,0.8,1.1,1.2,1.6,1c0,0,0,0,0,0
			c0.4-0.2,0.5-1,0.1-1.8C190.7,185,190,184.5,189.5,184.7z M196.1,331.8c-0.1,0-0.2,0.1-0.2,0.4c0.1,0.2,0.2,0.4,0.4,0.4
			c0,0,0.1,0,0.1,0c0.1,0,0.1-0.2,0.1-0.3C196.4,332,196.2,331.8,196.1,331.8z M198.3,267.7c0.2-0.2,0.1-0.7-0.2-1.1
			c-0.3-0.4-0.7-0.5-0.8-0.3c-0.2,0.2-0.1,0.7,0.2,1.1c0.2,0.3,0.5,0.4,0.7,0.3C198.3,267.8,198.3,267.7,198.3,267.7z M197.8,336.4
			c0,0.1,0.1,0.3,0.2,0.3c0,0,0.1,0,0.1,0c0,0,0.1-0.1,0.1-0.2c0-0.1-0.1-0.3-0.2-0.3C197.8,336.2,197.7,336.3,197.8,336.4z
			 M197.8,229.8c0,0,0.1,0,0.1-0.1c0.3-0.3,0.2-0.9-0.2-1.4c-0.3-0.5-0.8-0.7-1.1-0.4c-0.3,0.3-0.2,0.9,0.2,1.4
			C197.2,229.7,197.6,229.9,197.8,229.8z M238.7,183.6c0.3-0.2,0.4-0.7,0.2-1.3c-0.3-0.7-0.8-1.2-1.3-1.1c-0.5,0.1-0.6,0.7-0.3,1.4
			c0.3,0.7,0.8,1.2,1.3,1.1C238.6,183.6,238.7,183.6,238.7,183.6z M273.8,182.1c0.3-0.1,0.3-0.6,0.1-1.1c-0.2-0.6-0.7-1-1.1-0.9
			c-0.4,0.1-0.5,0.6-0.2,1.2c0.2,0.6,0.7,1,1.1,0.9C273.8,182.2,273.8,182.1,273.8,182.1z M272.8,212.1c-0.1,0.2,0,0.4,0.1,0.7
			c0.1,0.2,0.3,0.2,0.4,0.2c0,0,0.1,0,0.1-0.1c0.1-0.2,0-0.4-0.1-0.7C273.1,212,272.9,211.9,272.8,212.1z M262.9,182.2
			c0.1,0,0.1,0,0.1,0c0.3-0.2,0.4-0.7,0.2-1.2c-0.2-0.6-0.8-1.1-1.2-1c-0.4,0.1-0.5,0.6-0.3,1.3
			C261.9,181.8,262.4,182.3,262.9,182.2z M270.4,189C270.4,189,270.4,189,270.4,189c0.3-0.1,0.3-0.6,0.1-1c-0.2-0.4-0.6-0.7-0.9-0.6
			c-0.3,0.1-0.3,0.5-0.1,1C269.7,188.9,270.1,189.1,270.4,189z M269.1,193.3c-0.2,0.1-0.2,0.5,0,0.9c0.2,0.4,0.5,0.6,0.7,0.4
			c0.2-0.1,0.2-0.5,0-0.9C269.7,193.4,269.3,193.2,269.1,193.3z M276.8,224c-0.1,0.1,0,0.4,0.1,0.5c0.1,0.1,0.2,0.1,0.3,0.1
			c0,0,0,0,0.1-0.1c0.1-0.1,0-0.4-0.1-0.5C277,223.9,276.8,223.9,276.8,224z M281.5,201.8C281.5,201.8,281.5,201.8,281.5,201.8
			c0.2-0.2,0.1-0.5,0-0.7c-0.2-0.2-0.4-0.3-0.5-0.2c-0.1,0.1-0.1,0.4,0.1,0.6C281.2,201.8,281.4,201.9,281.5,201.8z M276.3,178.7
			c-0.2-0.6-0.8-1.1-1.2-1c-0.4,0.1-0.5,0.6-0.3,1.3c0.2,0.6,0.8,1.1,1.2,1c0,0,0,0,0,0c0.1,0,0.1,0,0.1,0
			C276.5,179.7,276.5,179.2,276.3,178.7z M276.6,251.7C276.6,251.6,276.6,251.6,276.6,251.7c0.1-0.2,0-0.3-0.1-0.4
			c-0.1-0.1-0.2-0.1-0.3,0c0,0.1,0,0.3,0.1,0.4C276.5,251.7,276.5,251.7,276.6,251.7z M264.4,251c-0.1,0.1,0,0.4,0.1,0.5
			c0.1,0.1,0.2,0.1,0.3,0.1c0,0,0.1,0,0.1-0.1c0.1-0.1,0-0.4-0.1-0.5C264.7,250.9,264.5,250.8,264.4,251z M265,279.4
			c0,0.1,0,0.3,0.1,0.4c0.1,0.1,0.1,0.1,0.2,0.1c0,0,0,0,0.1-0.1c0-0.1,0-0.3-0.1-0.4C265.2,279.3,265.1,279.3,265,279.4z
			 M281.3,188.8C281.3,188.8,281.4,188.8,281.3,188.8c0.2-0.1,0.3-0.5,0.1-0.8c-0.2-0.4-0.5-0.6-0.7-0.5c-0.2,0.1-0.3,0.5-0.1,0.8
			C280.8,188.7,281.1,188.9,281.3,188.8z M266.1,225.2C266.1,225.2,266.2,225.2,266.1,225.2c0.2-0.2,0.1-0.5-0.1-0.8
			c-0.2-0.2-0.4-0.2-0.5-0.1c-0.1,0.2,0,0.5,0.2,0.7C265.8,225.2,266,225.3,266.1,225.2z M265.6,178.9c-0.3-0.7-0.8-1.2-1.3-1.1
			c-0.4,0.1-0.6,0.7-0.4,1.4c0.3,0.7,0.8,1.2,1.3,1.1c0.1,0,0.1,0,0.2,0C265.8,180,265.9,179.5,265.6,178.9z M270.9,238
			C271,238,271,238,270.9,238c0.1-0.2,0.1-0.4-0.1-0.6c-0.1-0.1-0.3-0.2-0.4,0c-0.1,0.1,0,0.4,0.1,0.5
			C270.7,238,270.9,238,270.9,238z M271.1,265.8C271.1,265.8,271.1,265.8,271.1,265.8c0.1-0.2,0-0.3-0.1-0.4c-0.1-0.1-0.2-0.1-0.3,0
			c0,0.1,0,0.3,0.1,0.4C270.9,265.8,271,265.9,271.1,265.8z M267.9,178.6c0.1,0,0.1,0,0.2-0.1c0.3-0.1,0.4-0.5,0.3-1h-1.8
			C266.9,178.2,267.5,178.7,267.9,178.6z M271.8,185C271.8,185,271.8,185,271.8,185c0.3-0.2,0.4-0.6,0.2-1.1c-0.2-0.5-0.6-0.8-1-0.7
			c-0.3,0.1-0.4,0.6-0.2,1.1C271,184.8,271.5,185.1,271.8,185z M270.7,202.6C270.8,202.6,270.8,202.6,270.7,202.6
			c0.2-0.2,0.2-0.6,0-0.8c-0.2-0.3-0.5-0.4-0.6-0.2c-0.1,0.2-0.1,0.5,0.1,0.8C270.4,202.6,270.6,202.7,270.7,202.6z M295.2,181
			C295.2,181,295.2,181,295.2,181c0.3-0.1,0.3-0.5,0.1-0.9c-0.2-0.4-0.6-0.7-0.8-0.6c-0.3,0.1-0.3,0.5-0.2,0.9
			C294.6,180.8,294.9,181.1,295.2,181z M294.1,210c0,0.1,0,0.3,0.1,0.4c0.1,0.1,0.2,0.1,0.2,0.1c0,0,0,0,0,0c0-0.1,0-0.3-0.1-0.4
			C294.2,209.9,294.1,209.9,294.1,210z M292.8,182.8c-0.2,0.1-0.3,0.4-0.1,0.8c0.2,0.4,0.5,0.6,0.7,0.5c0,0,0,0,0,0
			c0.2-0.1,0.2-0.5,0.1-0.8C293.4,183,293.1,182.7,292.8,182.8z M242.1,178.4c0.3,0.8,0.9,1.4,1.5,1.4c0.1,0,0.2,0,0.3-0.1
			c0.4-0.2,0.5-0.8,0.3-1.4c-0.1-0.3-0.2-0.5-0.4-0.7H242C242,177.8,242,178.1,242.1,178.4z M239.5,178c0.2-0.1,0.3-0.2,0.3-0.4
			h-1.7c0.3,0.3,0.7,0.5,1,0.5C239.3,178.1,239.4,178,239.5,178z M292.2,200.7C292.2,200.7,292.2,200.7,292.2,200.7
			c0.1-0.1,0.1-0.3,0-0.5c-0.1-0.2-0.3-0.2-0.4-0.2c-0.1,0.1-0.1,0.3,0,0.5C291.9,200.7,292.1,200.8,292.2,200.7z M72,205.3
			c0.6,0.9,1.4,1.4,1.9,1.1c0,0,0.1,0,0.1-0.1c0.5-0.4,0.5-1.5-0.1-2.5c-0.6-1-1.5-1.4-2-1c0,0-0.1,0.1-0.1,0.1
			c-0.1,0.2-0.2,0.3-0.2,0.5C71.4,203.9,71.6,204.6,72,205.3z M280.2,193.2c-0.2,0.1-0.2,0.4,0,0.8c0.2,0.3,0.4,0.4,0.6,0.4
			c0,0,0,0,0,0c0.2-0.1,0.2-0.4,0-0.8C280.6,193.2,280.4,193.1,280.2,193.2z M232.7,179c0.1,0,0.2,0,0.3-0.1
			c0.4-0.2,0.5-0.7,0.3-1.4h-2.2C231.4,178.4,232.1,179,232.7,179z M283.6,211.2c-0.1,0.1,0,0.4,0.1,0.5c0.1,0.1,0.2,0.2,0.3,0.1
			c0,0,0,0,0.1-0.1c0.1-0.1,0-0.4-0.1-0.5C283.8,211.1,283.7,211.1,283.6,211.2z M284.6,181.7c0.3-0.1,0.3-0.6,0.1-1
			c-0.2-0.5-0.6-0.8-1-0.8c-0.3,0.1-0.4,0.6-0.2,1.1C283.8,181.5,284.2,181.8,284.6,181.7C284.5,181.8,284.6,181.7,284.6,181.7z
			 M282.7,184.8C282.7,184.8,282.7,184.8,282.7,184.8c0.3-0.1,0.3-0.5,0.1-0.9c-0.2-0.4-0.6-0.7-0.8-0.6c-0.3,0.1-0.3,0.5-0.1,0.9
			C282,184.6,282.4,184.9,282.7,184.8z M291.1,192.7c-0.1,0.1-0.1,0.4,0,0.6c0.1,0.2,0.4,0.4,0.5,0.3c0,0,0,0,0,0
			c0.1-0.1,0.1-0.4,0-0.6C291.5,192.7,291.3,192.6,291.1,192.7z M281.8,237.1c0,0.1,0,0.3,0.1,0.4c0.1,0.1,0.1,0.1,0.2,0.1
			c0,0,0,0,0.1-0.1c0-0.1,0-0.3-0.1-0.4C282,237,281.9,237,281.8,237.1z M292.3,187.5c-0.1-0.3-0.4-0.5-0.6-0.4
			c-0.2,0.1-0.2,0.4-0.1,0.7c0.2,0.3,0.4,0.5,0.6,0.4c0,0,0,0,0,0C292.4,188.1,292.4,187.8,292.3,187.5z M285.6,178.5
			c0.2,0.6,0.7,0.9,1.1,0.9c0,0,0,0,0,0c0,0,0.1,0,0.1,0c0.3-0.1,0.3-0.6,0.1-1.1c-0.1-0.2-0.2-0.4-0.4-0.6h-1
			C285.4,177.8,285.4,178.1,285.6,178.5z M287.6,223.2c0,0.1,0,0.3,0.1,0.4c0.1,0.1,0.1,0.1,0.2,0.1c0,0,0,0,0.1-0.1
			c0-0.1,0-0.3-0.1-0.4C287.8,223.1,287.7,223.1,287.6,223.2z M234.8,236.3c0.2,0.2,0.5,0.4,0.6,0.3c0,0,0.1-0.1,0.1-0.1
			c0.1-0.2,0.1-0.7-0.2-1c-0.3-0.3-0.6-0.4-0.7-0.2l0,0C234.5,235.5,234.6,236,234.8,236.3z M248.7,203.1
			C248.8,203,248.8,203,248.7,203.1c0.3-0.3,0.2-0.7,0-1.1c-0.3-0.4-0.7-0.6-0.9-0.3c-0.2,0.2-0.2,0.7,0.1,1.1
			C248.2,203,248.5,203.2,248.7,203.1z M245.3,290.7c-0.1,0.1,0,0.4,0.1,0.5c0.1,0.1,0.2,0.2,0.3,0.1c0,0,0,0,0.1-0.1
			c0.1-0.1,0-0.4-0.1-0.5C245.5,290.6,245.3,290.6,245.3,290.7z M249.7,184.5c0,0,0.1,0,0.1,0c0.3-0.2,0.4-0.7,0.2-1.2
			c-0.2-0.6-0.8-1.1-1.2-1c-0.4,0.1-0.5,0.7-0.3,1.3C248.8,184.1,249.3,184.6,249.7,184.5z M246.1,264
			C246.1,264,246.1,264,246.1,264c0.2-0.3,0.1-0.5-0.1-0.8c-0.2-0.2-0.4-0.2-0.5-0.1c-0.1,0.2,0,0.5,0.2,0.7
			C245.8,264,246,264.1,246.1,264z M246.6,178.9c0.1,0,0.2,0,0.3-0.1c0.3-0.2,0.5-0.6,0.3-1.2h-2.1
			C245.4,178.3,246.1,178.9,246.6,178.9z M248.2,188.4C248.2,188.4,248.2,188.4,248.2,188.4c0.4-0.2,0.4-0.7,0.2-1.2
			c-0.3-0.6-0.7-0.9-1.1-0.8c-0.3,0.1-0.4,0.7-0.2,1.2C247.4,188.2,247.9,188.6,248.2,188.4z M247.8,194.5c0.3-0.2,0.3-0.7,0-1.2
			c-0.3-0.5-0.7-0.7-1-0.5c-0.3,0.2-0.3,0.7,0,1.2C247,194.4,247.5,194.6,247.8,194.5C247.7,194.5,247.8,194.5,247.8,194.5z
			 M261.7,212.4c-0.1,0.2-0.1,0.6,0.2,0.8c0.2,0.2,0.4,0.3,0.5,0.2c0,0,0.1,0,0.1-0.1c0.1-0.2,0.1-0.5-0.2-0.8
			C262.1,212.3,261.8,212.2,261.7,212.4z M237.5,202.6C237.5,202.5,237.5,202.5,237.5,202.6c0.3-0.3,0.3-0.8,0-1.3
			c-0.3-0.5-0.7-0.6-1-0.4c-0.2,0.2-0.2,0.8,0.1,1.2C236.8,202.5,237.2,202.7,237.5,202.6z M235.8,327.9
			C235.8,327.9,235.8,327.9,235.8,327.9c0.1-0.1,0.1-0.2,0-0.4c-0.1-0.1-0.2-0.2-0.3-0.1c-0.1,0.1-0.1,0.2,0,0.3
			C235.6,327.9,235.7,328,235.8,327.9z M244.4,317.4c-0.1,0.1,0,0.2,0.1,0.3c0.1,0.1,0.2,0.1,0.2,0.1c0,0,0,0,0,0
			c0.1-0.1,0-0.2-0.1-0.4C244.6,317.4,244.5,317.3,244.4,317.4z M236.5,193.9C236.5,193.9,236.6,193.9,236.5,193.9
			c0.3-0.2,0.3-0.8,0-1.3c-0.3-0.5-0.8-0.8-1.1-0.6c-0.3,0.2-0.3,0.8,0,1.3C235.7,193.8,236.2,194,236.5,193.9z M237,187.6
			C237,187.6,237,187.6,237,187.6C237,187.6,237,187.6,237,187.6c0.4-0.2,0.5-0.8,0.2-1.3c-0.3-0.6-0.8-1-1.2-0.9
			c-0.4,0.1-0.5,0.7-0.2,1.4C236.1,187.3,236.6,187.8,237,187.6z M249.7,178c0.1,0,0.2,0,0.3-0.1c0.1-0.1,0.2-0.2,0.3-0.4h-1.6
			C249.1,177.9,249.4,178.1,249.7,178z M242.3,223.6c-0.2,0.2-0.1,0.7,0.2,1c0.2,0.3,0.5,0.4,0.6,0.3c0,0,0.1-0.1,0.1-0.1
			c0.1-0.2,0.1-0.7-0.2-1C242.8,223.5,242.5,223.4,242.3,223.6z M237.9,302.8c-0.1,0.1,0,0.3,0.1,0.5c0.1,0.1,0.2,0.2,0.3,0.1
			c0,0,0,0,0,0c0.1-0.1,0-0.3-0.1-0.5C238.1,302.7,237.9,302.7,237.9,302.8z M178.9,200.6c-0.4,0.3-0.4,1.1,0,1.8
			c0.4,0.7,1,1,1.4,0.8c0,0,0,0,0.1,0c0.4-0.3,0.4-1.1,0-1.8C180,200.7,179.3,200.4,178.9,200.6z M246.9,236.6
			c-0.1,0.2,0,0.6,0.2,0.8c0.2,0.2,0.4,0.3,0.5,0.2c0,0,0.1-0.1,0.1-0.1c0.1-0.2,0-0.6-0.2-0.8C247.2,236.4,247,236.4,246.9,236.6z
			 M258.8,194.7C258.8,194.7,258.8,194.7,258.8,194.7c0.3-0.2,0.3-0.6,0-1c-0.2-0.4-0.6-0.6-0.9-0.5c-0.2,0.2-0.2,0.6,0,1
			C258.2,194.6,258.6,194.9,258.8,194.7z M258.8,265.2C258.8,265.1,258.8,265.1,258.8,265.2c0.1-0.2,0.1-0.4-0.1-0.6
			c-0.1-0.1-0.3-0.2-0.4,0c-0.1,0.1,0,0.4,0.1,0.5C258.6,265.2,258.7,265.2,258.8,265.2z M258.5,187.1c-0.3,0.1-0.4,0.6-0.1,1.1
			c0.2,0.5,0.7,0.8,1,0.7c0,0,0,0,0,0c0.3-0.1,0.3-0.6,0.1-1.1C259.2,187.3,258.8,187,258.5,187.1z M259.8,203.1
			C259.8,203.1,259.9,203.1,259.8,203.1c0.3-0.2,0.2-0.7,0-1c-0.2-0.3-0.6-0.5-0.7-0.3c-0.2,0.2-0.1,0.6,0.1,0.9
			C259.4,203.1,259.6,203.2,259.8,203.1z M259.4,238.1C259.4,238.1,259.4,238.1,259.4,238.1c0.2-0.3,0.1-0.6-0.1-0.8
			c-0.2-0.2-0.4-0.2-0.5-0.1c-0.1,0.2,0,0.5,0.2,0.7C259.1,238.1,259.3,238.2,259.4,238.1z M260.8,184.9
			C260.8,184.9,260.9,184.9,260.8,184.9c0.4-0.2,0.4-0.7,0.2-1.2c-0.2-0.6-0.7-0.9-1.1-0.9c-0.4,0.1-0.5,0.6-0.2,1.2
			C260,184.6,260.4,185,260.8,184.9z M252.8,251.1C252.8,251.1,252.8,251.1,252.8,251.1c0.2-0.3,0.1-0.5-0.1-0.7
			c-0.2-0.2-0.4-0.2-0.5-0.1c-0.1,0.2,0,0.5,0.2,0.7C252.5,251.1,252.7,251.2,252.8,251.1z M258.9,292.9c0,0.1,0,0.3,0.1,0.4
			c0.1,0.1,0.2,0.1,0.2,0.1c0,0,0,0,0,0c0-0.1,0-0.3-0.1-0.4C259.1,292.8,259,292.8,258.9,292.9z M257.3,178.9c0.1,0,0.2,0,0.2-0.1
			c0.3-0.2,0.4-0.7,0.3-1.3h-2C256.1,178.4,256.8,179,257.3,178.9z M252.1,181.9c0.3-0.2,0.4-0.7,0.2-1.3c-0.3-0.7-0.8-1.2-1.3-1.2
			c-0.5,0-0.6,0.7-0.4,1.3c0.3,0.7,0.8,1.2,1.3,1.1C252,181.9,252,181.9,252.1,181.9z M252.1,305.7c-0.1,0.1,0,0.2,0.1,0.4
			c0.1,0.1,0.2,0.1,0.2,0.1c0,0,0,0,0,0c0-0.1,0-0.3-0.1-0.4C252.3,305.7,252.2,305.6,252.1,305.7z M252.4,277.9
			c-0.1-0.2-0.3-0.2-0.4-0.1c-0.1,0.1,0,0.4,0.1,0.5c0.1,0.1,0.2,0.2,0.3,0.1c0,0,0.1,0,0.1-0.1
			C252.6,278.3,252.5,278.1,252.4,277.9z M250.3,212.3c-0.2,0.2-0.1,0.6,0.2,1c0.2,0.3,0.5,0.4,0.6,0.3c0,0,0.1,0,0.1-0.1
			c0.2-0.2,0.1-0.6-0.2-1C250.8,212.1,250.5,212,250.3,212.3z M278.5,178c0.1,0,0.1,0,0.1,0c0.1-0.1,0.2-0.2,0.3-0.4h-1.3
			C277.9,177.9,278.2,178.1,278.5,178z M254.1,224.3c-0.1,0.2,0,0.6,0.2,0.8c0.2,0.2,0.4,0.3,0.5,0.2c0,0,0.1,0,0.1-0.1
			c0.1-0.2,0-0.6-0.2-0.8C254.4,224.1,254.2,224.1,254.1,224.3z M260.2,177.7c0.1,0,0.1,0,0.2-0.1c0,0,0,0,0,0h-0.7
			C259.9,177.7,260.1,177.7,260.2,177.7z M253.1,178.9c0.3,0.7,0.9,1.3,1.4,1.3c0.1,0,0.1,0,0.2-0.1c0.3-0.2,0.4-0.7,0.2-1.4
			c-0.2-0.5-0.6-1-1-1.2h-0.7C253,177.8,252.9,178.3,253.1,178.9z M167.3,319.5c0,0.1,0,0.3,0.1,0.4c0.1,0.1,0.1,0.1,0.2,0
			c0,0,0,0,0.1-0.1c0-0.1,0-0.3-0.1-0.4C167.5,319.4,167.4,319.4,167.3,319.5z M97.9,250.5c0.1,0,0.1,0,0.2,0c0.1,0,0.1-0.1,0.1-0.2
			c0-0.2-0.1-0.4-0.3-0.5c-0.2-0.1-0.3,0-0.3,0.2C97.6,250.2,97.8,250.4,97.9,250.5z M97.2,204.9C97.2,204.9,97.2,204.9,97.2,204.9
			c0.6-0.4,0.6-1.4,0-2.4s-1.4-1.4-1.9-1c-0.5,0.4-0.5,1.4,0,2.3C95.8,204.7,96.7,205.2,97.2,204.9z M94.8,257
			c0.1,0.1,0.2,0.1,0.3,0c0.1,0,0.1-0.1,0.1-0.2c0-0.2-0.1-0.5-0.3-0.6c-0.2-0.1-0.4-0.1-0.4,0.2C94.5,256.5,94.6,256.8,94.8,257z
			 M97.3,257.7c0.1,0,0.1-0.1,0.1-0.1c0.4-0.4,0.3-1.3-0.2-2c-0.5-0.7-1.2-1-1.6-0.6c-0.4,0.4-0.3,1.3,0.2,2
			C96.3,257.6,96.9,257.9,97.3,257.7z M95.7,192.4C95.7,192.4,95.7,192.4,95.7,192.4c0.6-0.3,0.6-1.4,0.1-2.4c-0.5-1-1.4-1.6-2-1.3
			c-0.6,0.3-0.7,1.4-0.1,2.4C94.2,192.2,95.1,192.7,95.7,192.4z M88.6,293.1C88.6,293.1,88.6,293.1,88.6,293.1
			c0.2,0.1,0.4,0.1,0.5,0.1c0.1-0.1,0.2-0.2,0.2-0.5c0-0.5-0.3-1-0.7-1.2c-0.4-0.2-0.7,0-0.7,0.4C87.9,292.4,88.2,292.9,88.6,293.1z
			 M91.4,287c-0.3-0.7-0.9-1.1-1.3-1c-0.4,0.1-0.5,0.8-0.3,1.4c0.3,0.7,0.9,1.1,1.3,1c0,0,0.1,0,0.1,0
			C91.6,288.2,91.6,287.6,91.4,287z M89.9,295.9c0.1,0,0.3,0,0.4,0c0.2-0.1,0.3-0.4,0.2-0.8c-0.1-0.6-0.5-1.1-0.9-1.2
			c-0.4-0.1-0.7,0.2-0.6,0.8C89.1,295.3,89.5,295.8,89.9,295.9z M91.2,294.2c0.3-0.1,0.4-0.6,0.2-1.1c-0.2-0.6-0.7-1.1-1.1-1.1
			c-0.4,0-0.6,0.5-0.4,1.1c0.2,0.6,0.7,1.1,1.1,1.2C91.1,294.3,91.1,294.3,91.2,294.2z M103.3,290.6c-0.3-0.2-0.6-0.2-0.6,0.1
			c-0.1,0.3,0.1,0.7,0.4,1c0.1,0.1,0.2,0.1,0.3,0.1c0,0.1,0,0.2,0.1,0.2c0.3,0.6,0.8,1.1,1.2,1c0,0,0.1,0,0.1,0
			c0.3-0.2,0.4-0.7,0.2-1.2c-0.3-0.6-0.8-1.1-1.2-1c-0.1,0-0.1,0-0.1,0.1C103.5,290.7,103.4,290.6,103.3,290.6z M105.3,282.3
			c0.1-0.2,0.1-0.5-0.1-0.8c-0.2-0.3-0.5-0.4-0.6-0.2c-0.1,0.2-0.1,0.5,0.1,0.8C104.8,282.3,105.1,282.4,105.3,282.3
			C105.2,282.3,105.3,282.3,105.3,282.3z M103.4,283.9C103.4,283.9,103.4,283.9,103.4,283.9c0.4-0.2,0.4-0.9,0.1-1.6
			c-0.3-0.7-0.9-1-1.3-0.8c-0.4,0.2-0.4,0.9-0.1,1.5C102.4,283.7,103,284.1,103.4,283.9z M88.6,286.3c0.1,0,0.1-0.1,0.2-0.2
			c0.1-0.3-0.1-0.8-0.4-1.1c-0.3-0.3-0.7-0.3-0.8,0.1c-0.1,0.3,0.1,0.8,0.4,1.1C88.2,286.3,88.4,286.3,88.6,286.3z M99.6,218.6
			c0,0,0.1,0,0.1-0.1c0.5-0.4,0.4-1.4-0.1-2.2c-0.5-0.9-1.3-1.2-1.8-0.9c-0.5,0.4-0.4,1.4,0.1,2.2C98.4,218.5,99.2,218.9,99.6,218.6
			z M107.4,187C107.4,187,107.4,187,107.4,187c0.6-0.3,0.7-1.3,0.2-2.3c-0.5-1-1.4-1.6-2-1.4c-0.6,0.3-0.7,1.3-0.2,2.3
			C105.9,186.6,106.8,187.3,107.4,187z M102.9,233.2c0,0,0.1-0.1,0.1-0.1c0.4-0.4,0.3-1.3-0.2-2.1c-0.5-0.8-1.3-1.1-1.7-0.7
			c-0.4,0.4-0.3,1.3,0.2,2.1C101.8,233.1,102.5,233.4,102.9,233.2z M100.9,271.8C100.9,271.8,100.9,271.8,100.9,271.8
			c0.5-0.4,0.4-1.2,0-1.8c-0.4-0.7-1.1-1-1.5-0.7c-0.4,0.3-0.3,1.1,0.1,1.8C99.9,271.7,100.5,272.1,100.9,271.8z M101.4,245
			c0,0,0.1,0,0.1,0c0,0,0.1-0.1,0.1-0.2c0-0.1-0.1-0.3-0.2-0.3c-0.1,0-0.2,0-0.2,0.2C101.2,244.8,101.3,244.9,101.4,245z
			 M84.2,252.2c0.1,0,0.1-0.1,0.2-0.1c0.4-0.4,0.3-1.4-0.2-2.1c-0.5-0.8-1.3-1.1-1.7-0.6c-0.4,0.4-0.3,1.4,0.2,2.1
			C83.1,252.1,83.8,252.4,84.2,252.2z M104.9,298.5c0.2-0.1,0.3-0.5,0.2-0.9c-0.2-0.6-0.6-1-1-1.1c-0.2,0-0.3,0.1-0.4,0.2
			c-0.1-0.3-0.3-0.5-0.5-0.6c-0.3-0.2-0.6-0.1-0.6,0.4c0,0.4,0.2,0.9,0.6,1.1c0.2,0.1,0.3,0.1,0.4,0.1c0,0,0,0,0,0
			c0.2,0.6,0.6,1,1,1C104.8,298.6,104.8,298.5,104.9,298.5z M103.8,298.3c-0.4-0.1-0.6,0.2-0.6,0.7c0.1,0.5,0.4,1,0.8,1.1
			c0.1,0,0.3,0,0.3,0c0.2-0.1,0.3-0.3,0.2-0.6C104.5,298.9,104.1,298.4,103.8,298.3z M87.9,224.2c-0.4,0.4-0.4,1.4,0.2,2.3
			c0.5,0.7,1.2,1.1,1.7,0.9c0.1,0,0.1-0.1,0.1-0.1c0.4-0.4,0.4-1.4-0.2-2.3C89.2,224.1,88.4,223.8,87.9,224.2z M106.7,246.1
			c-0.5-0.7-1.2-1-1.6-0.6l0,0c-0.4,0.4-0.3,1.3,0.2,2c0.4,0.6,1,0.9,1.4,0.7c0,0,0.1-0.1,0.1-0.1c0,0,0,0,0,0
			C107.2,247.7,107.1,246.9,106.7,246.1z M125.9,230c0,0,0.1,0,0.1-0.1c0.4-0.3,0.3-1.2-0.1-2c-0.5-0.7-1.2-1-1.6-0.7
			c-0.4,0.3-0.3,1.2,0.1,2C124.9,229.9,125.5,230.2,125.9,230z M124.8,279.7C124.8,279.7,124.8,279.7,124.8,279.7
			c0.1-0.1,0.1-0.3,0-0.5c-0.1-0.2-0.3-0.3-0.4-0.2c-0.1,0.1-0.1,0.3,0,0.5C124.5,279.7,124.7,279.8,124.8,279.7z M91.9,264.3
			c-0.1,0.2,0,0.6,0.3,0.8c0.2,0.2,0.3,0.2,0.4,0.1c0.1,0,0.1-0.1,0.1-0.2c0.1-0.2,0-0.6-0.3-0.8C92.3,264,92,264.1,91.9,264.3z
			 M114.6,236.2c-0.4,0.4-0.3,1.2,0.2,2c0.4,0.7,1,0.9,1.4,0.7c0,0,0.1,0,0.1-0.1c0.4-0.4,0.3-1.3-0.2-2
			C115.6,236.1,115,235.8,114.6,236.2z M93.4,242.6c0.1,0,0.1-0.1,0.2-0.1c0.4-0.4,0.3-1.4-0.2-2.1c-0.5-0.8-1.3-1.1-1.7-0.7
			c-0.4,0.4-0.3,1.4,0.2,2.1C92.4,242.5,93,242.8,93.4,242.6z M89.4,274.6c-0.2,0.2-0.1,0.6,0.1,0.9c0.2,0.3,0.5,0.4,0.7,0.3
			c0,0,0,0,0.1,0c0.2-0.2,0.1-0.6-0.1-0.9C89.9,274.6,89.6,274.4,89.4,274.6z M84.5,198.9C84.5,198.8,84.5,198.8,84.5,198.9
			c0.6-0.4,0.6-1.5,0.1-2.5c-0.6-1-1.5-1.5-2.1-1.1c-0.6,0.4-0.6,1.5,0,2.5C83.1,198.6,83.9,199.2,84.5,198.9z M87.6,266.6
			C87.7,266.6,87.7,266.6,87.6,266.6c0.5-0.4,0.5-1.3,0-2c-0.5-0.7-1.2-1.1-1.6-0.7c-0.4,0.3-0.4,1.2,0.1,1.9
			C86.6,266.5,87.2,266.8,87.6,266.6z M88.7,276.4c-0.4,0.2-0.5,1-0.1,1.7c0.4,0.7,1,1.1,1.5,0.9l0,0c0.4-0.2,0.5-1,0.1-1.7
			C89.7,276.5,89.1,276.1,88.7,276.4z M86.2,240.5c0,0.1,0.1,0.3,0.2,0.3c0,0,0.1,0,0.1,0c0.1,0,0.1-0.1,0.1-0.2
			c0-0.1-0.1-0.3-0.2-0.3C86.3,240.2,86.2,240.3,86.2,240.5z M82.7,244.5c-0.1,0-0.2,0.1-0.2,0.3c0,0.2,0.2,0.4,0.3,0.4
			c0,0,0.1,0,0.1,0c0.1,0,0.1-0.1,0.1-0.3C83,244.8,82.9,244.6,82.7,244.5z M86.7,212.6c0,0,0.1,0,0.1-0.1c0.5-0.4,0.5-1.5-0.1-2.4
			c-0.6-0.9-1.4-1.3-1.9-0.9c-0.5,0.4-0.5,1.5,0.1,2.4C85.4,212.4,86.2,212.9,86.7,212.6z M108.2,198.2
			C108.3,198.2,108.3,198.2,108.2,198.2C108.3,198.2,108.3,198.2,108.2,198.2c0.6-0.3,0.6-1.3,0.1-2.3c-0.5-1-1.4-1.5-1.9-1.2
			c-0.6,0.3-0.6,1.3-0.1,2.3C106.8,198,107.7,198.5,108.2,198.2z M302.9,187.3L302.9,187.3c0.1-0.1,0.2-0.3,0-0.6
			c-0.1-0.3-0.4-0.4-0.5-0.3c-0.1,0.1-0.2,0.3,0,0.6C302.6,187.3,302.8,187.4,302.9,187.3z M305.8,180
			C305.8,180,305.8,180,305.8,180c0.2-0.1,0.3-0.5,0.1-0.8c-0.2-0.4-0.5-0.6-0.7-0.5c-0.2,0.1-0.3,0.4-0.1,0.8
			C305.2,179.9,305.6,180.1,305.8,180z M302.4,199c-0.1,0.1,0,0.2,0,0.3c0.1,0.1,0.2,0.2,0.3,0.1c0,0,0,0,0,0c0.1-0.1,0-0.2,0-0.3
			C302.6,199,302.4,199,302.4,199z M304.2,183.3C304.2,183.3,304.2,183.3,304.2,183.3c0.2-0.1,0.2-0.4,0.1-0.7
			c-0.2-0.3-0.4-0.5-0.6-0.4c-0.2,0.1-0.2,0.4-0.1,0.7C303.7,183.2,304,183.4,304.2,183.3z M124.3,268.4c0,0,0.1,0,0.1-0.1
			c0.3-0.3,0.3-1.1-0.1-1.7c-0.4-0.6-1-0.9-1.3-0.6c-0.3,0.3-0.3,1.1,0.1,1.7C123.4,268.3,123.9,268.6,124.3,268.4z M302,191.9
			c-0.1,0.1-0.1,0.3,0,0.5c0.1,0.2,0.3,0.3,0.4,0.2c0,0,0,0,0,0c0.1-0.1,0.1-0.3,0-0.5C302.3,191.9,302.1,191.8,302,191.9z
			 M74,282.4c0.1,0,0.2-0.1,0.2-0.3c0.1-0.4-0.1-1-0.5-1.3c-0.4-0.3-0.8-0.3-0.9,0.1c-0.1,0.4,0.1,1,0.5,1.3
			C73.5,282.4,73.8,282.5,74,282.4z M71.2,246.5c0.1,0,0.1-0.1,0.2-0.1c0.4-0.4,0.3-1.5-0.3-2.3c-0.6-0.8-1.4-1.1-1.8-0.7
			c-0.4,0.5-0.3,1.5,0.3,2.3C70.1,246.5,70.8,246.8,71.2,246.5z M73.1,260.5c0.5,0.7,1.1,1.1,1.6,0.8c0,0,0.1,0,0.1-0.1
			c0.4-0.4,0.4-1.3-0.1-2.1c-0.5-0.8-1.3-1.1-1.7-0.7l0,0C72.5,258.8,72.6,259.7,73.1,260.5z M335.4,178.6c-0.1,0-0.1,0.2,0,0.3
			c0.1,0.1,0.2,0.2,0.3,0.2l0,0c0.1,0,0.1-0.2,0-0.3C335.6,178.7,335.5,178.6,335.4,178.6z M312.9,191.4L312.9,191.4
			c0.1-0.1,0.1-0.2,0-0.3c-0.1-0.1-0.2-0.2-0.3-0.1c-0.1,0.1-0.1,0.2,0,0.3C312.7,191.3,312.8,191.4,312.9,191.4z M68.4,242.9
			C68.4,242.9,68.4,242.9,68.4,242.9c0.1,0,0.1-0.2,0.1-0.3c0-0.1,0-0.1-0.1-0.2V242.9z M325.3,180.7
			C325.3,180.7,325.3,180.7,325.3,180.7c0.1-0.1,0.1-0.3,0-0.4c-0.1-0.2-0.3-0.3-0.4-0.3c-0.1,0.1-0.1,0.3,0,0.4
			C325,180.6,325.2,180.7,325.3,180.7z M296.3,177.7c0.2,0.5,0.7,0.8,1,0.7c0,0,0,0,0.1,0c0.2-0.1,0.3-0.4,0.2-0.8L296.3,177.7
			C296.3,177.6,296.3,177.6,296.3,177.7z M179.7,249.5c0,0,0.1-0.1,0.1-0.1c0.3-0.3,0.2-0.9-0.2-1.4c-0.3-0.5-0.8-0.7-1.1-0.4
			c-0.3,0.3-0.2,0.9,0.2,1.4C179,249.5,179.4,249.7,179.7,249.5z M313.6,186.2c0.1-0.1,0.1-0.3,0-0.4c-0.1-0.2-0.3-0.3-0.4-0.3
			c-0.1,0.1-0.1,0.3,0,0.5C313.3,186.1,313.5,186.2,313.6,186.2z M316.4,178.8C316.4,178.8,316.4,178.8,316.4,178.8
			c0.2-0.1,0.2-0.4,0.1-0.7c-0.1-0.3-0.4-0.5-0.6-0.4c-0.2,0.1-0.2,0.4-0.1,0.7C315.9,178.7,316.2,178.9,316.4,178.8z M110,210.8
			C110.1,210.7,110.1,210.7,110,210.8c0.6-0.4,0.5-1.4,0-2.2c-0.5-0.9-1.3-1.3-1.8-0.9c-0.5,0.3-0.5,1.3,0,2.2
			C108.8,210.6,109.5,211,110,210.8z M314.8,182.1C314.8,182.1,314.8,182.1,314.8,182.1c0.2-0.1,0.2-0.3,0.1-0.6
			c-0.1-0.3-0.3-0.4-0.5-0.3c-0.2,0.1-0.2,0.3-0.1,0.6C314.4,182,314.6,182.2,314.8,182.1z M114.4,277.1
			C114.4,277.1,114.5,277,114.4,277.1c0.4-0.3,0.4-1,0-1.7c-0.4-0.6-1-0.9-1.3-0.7c-0.4,0.3-0.3,1,0.1,1.6
			C113.5,277,114,277.3,114.4,277.1z M78.5,233.6c-0.4,0.4-0.3,1.5,0.3,2.3c0.5,0.7,1.2,1,1.6,0.8c0.1,0,0.1-0.1,0.2-0.1
			c0.4-0.4,0.3-1.5-0.3-2.3C79.7,233.5,78.9,233.2,78.5,233.6z M79.6,249.1c-0.2-0.1-0.3,0.1-0.3,0.4c0,0.3,0.2,0.5,0.4,0.6
			c0.1,0,0.1,0,0.2,0c0.1,0,0.1-0.2,0.1-0.4C80,249.4,79.8,249.2,79.6,249.1z M113,261.8C113.1,261.8,113.1,261.7,113,261.8
			c0.1-0.2,0.1-0.4-0.1-0.6c-0.1-0.1-0.3-0.2-0.4,0c-0.1,0.1,0,0.4,0.1,0.5C112.8,261.8,113,261.8,113,261.8z M109.1,271.4
			C109.2,271.3,109.2,271.3,109.1,271.4c0.2-0.2,0.1-0.4,0-0.7c-0.2-0.2-0.4-0.3-0.5-0.2c-0.1,0.1-0.1,0.4,0.1,0.6
			C108.8,271.3,109,271.4,109.1,271.4z M75.5,273.2c0.4,0.8,1.1,1.1,1.5,0.9c0,0,0,0,0,0c0.4-0.3,0.5-1.1,0-1.9
			c-0.4-0.8-1.1-1.2-1.6-0.9C75.1,271.6,75.1,272.5,75.5,273.2z M110.7,263.1c0,0,0.1,0,0.1-0.1c0.4-0.3,0.3-1.2-0.2-1.8
			c-0.4-0.7-1.1-0.9-1.4-0.6c-0.4,0.3-0.3,1.2,0.2,1.8C109.8,263,110.3,263.3,110.7,263.1z M112.7,224.4c0,0,0.1,0,0.1-0.1
			c0.4-0.4,0.4-1.3-0.1-2.1c-0.5-0.8-1.3-1.1-1.7-0.8c-0.4,0.4-0.4,1.3,0.1,2.1C111.6,224.3,112.3,224.7,112.7,224.4z M78.3,282.5
			c-0.3-0.7-1-1.2-1.4-1.1c-0.5,0.1-0.6,0.9-0.2,1.6c0.3,0.7,1,1.2,1.4,1.1c0,0,0.1,0,0.1,0C78.6,283.9,78.6,283.2,78.3,282.5z
			 M76.1,261.8c0-0.3-0.2-0.8-0.5-0.9c-0.3-0.2-0.5,0-0.6,0.3c0,0.3,0.2,0.8,0.5,0.9c0.1,0.1,0.3,0.1,0.4,0
			C76,262.1,76.1,262,76.1,261.8z M76.4,292.4c0.1,0,0.3,0,0.4,0c0.2-0.1,0.3-0.5,0.3-0.9c-0.1-0.6-0.6-1.2-1.1-1.3
			c-0.5-0.1-0.7,0.3-0.6,0.9C75.4,291.7,75.9,292.3,76.4,292.4z M71.8,238.2c-0.1,0-0.1,0.1-0.1,0.2c0,0.1,0.1,0.3,0.2,0.3
			c0,0,0,0,0.1,0c0.1,0,0.1-0.1,0-0.2C72,238.4,71.9,238.3,71.8,238.2z M73.8,288.4c0,0.5,0.4,1.1,0.8,1.3c0.2,0.1,0.4,0.1,0.5,0
			c0.2-0.1,0.3-0.3,0.3-0.6c0-0.5-0.4-1.1-0.8-1.3l0,0C74.1,287.6,73.8,287.9,73.8,288.4z M77.8,290.5c0.1,0,0.2,0,0.2-0.1
			c0.3-0.2,0.4-0.7,0.2-1.2c-0.2-0.7-0.8-1.2-1.3-1.2c-0.5,0-0.7,0.6-0.4,1.3C76.7,289.9,77.3,290.5,77.8,290.5z M77.5,255.4
			c0.1-0.1,0.2-0.2,0.1-0.4c0-0.3-0.2-0.6-0.5-0.7c-0.2-0.1-0.4,0.1-0.4,0.4c0,0.3,0.2,0.6,0.5,0.7
			C77.4,255.5,77.5,255.5,77.5,255.4z M74.4,268.9c-0.1,0.3,0,0.8,0.3,1.1c0.2,0.3,0.5,0.3,0.7,0.2c0.1,0,0.1-0.1,0.1-0.2
			c0.1-0.3,0-0.8-0.3-1.1C74.9,268.6,74.5,268.6,74.4,268.9z M74.8,217.9c-0.5,0.5-0.4,1.5,0.2,2.4c0.5,0.8,1.3,1.2,1.8,0.9
			c0.1,0,0.1-0.1,0.2-0.1c0.5-0.5,0.4-1.5-0.2-2.4C76.2,217.8,75.3,217.5,74.8,217.9z M324,184.8c0.1,0,0.1-0.2,0-0.3
			c-0.1-0.1-0.2-0.2-0.3-0.2c-0.1,0-0.1,0.2,0,0.3C323.8,184.8,323.9,184.8,324,184.8z M155.7,186.7
			C155.7,186.7,155.7,186.7,155.7,186.7c0.6-0.3,0.6-1.2,0.2-2.1c-0.4-0.9-1.2-1.5-1.8-1.2c-0.6,0.2-0.6,1.1-0.2,2.1
			C154.3,186.4,155.1,186.9,155.7,186.7z M155.4,290.6c-0.2,0.2-0.2,0.7,0.1,1.2c0.3,0.4,0.7,0.6,0.9,0.5c0,0,0,0,0.1,0
			c0.2-0.2,0.2-0.7-0.1-1.2C156.1,290.6,155.7,290.4,155.4,290.6z M157,254.6c0.3-0.3,0.2-1-0.2-1.5c-0.4-0.6-0.9-0.8-1.2-0.5
			c-0.3,0.3-0.2,1,0.2,1.5c0.3,0.5,0.8,0.7,1.1,0.5C156.9,254.7,156.9,254.7,157,254.6z M152.1,278.7
			C152.1,278.7,152.1,278.6,152.1,278.7c0.4-0.3,0.3-0.9,0-1.4c-0.3-0.5-0.8-0.7-1.1-0.5c-0.3,0.3-0.2,0.9,0.1,1.4
			C151.4,278.6,151.8,278.8,152.1,278.7z M157.2,206.6c0.4-0.3,0.4-1.1,0-1.9c-0.4-0.8-1.1-1.2-1.6-0.9c-0.4,0.3-0.4,1.1,0,1.9
			C156.1,206.4,156.7,206.8,157.2,206.6C157.2,206.6,157.2,206.6,157.2,206.6z M162.3,231.4C162.4,231.4,162.4,231.4,162.3,231.4
			c0.4-0.4,0.4-1.1,0-1.7c-0.4-0.6-1-0.9-1.3-0.6l0,0c-0.3,0.3-0.3,1,0.1,1.7C161.5,231.3,162,231.6,162.3,231.4z M161.5,269.2
			c0,0,0.1-0.1,0.1-0.1c0.3-0.3,0.2-0.9-0.2-1.4c-0.3-0.5-0.8-0.7-1.1-0.4c-0.3,0.3-0.2,0.9,0.2,1.4
			C160.8,269.2,161.2,269.4,161.5,269.2z M156,196C156,196,156,196,156,196c0.5-0.3,0.5-1.1,0.1-2c-0.4-0.8-1.2-1.3-1.7-1
			c-0.5,0.3-0.5,1.1-0.1,2C154.8,195.8,155.5,196.3,156,196z M162.6,313.9C162.7,313.9,162.7,313.9,162.6,313.9
			c0.3-0.1,0.3-0.4,0.2-0.8c-0.2-0.4-0.5-0.7-0.7-0.6c-0.3,0-0.3,0.4-0.2,0.8C162.1,313.6,162.4,313.9,162.6,313.9z M152.7,240.4
			c0,0,0.1-0.1,0.1-0.1c0.3-0.3,0.3-1.1-0.1-1.7c-0.4-0.6-1-0.9-1.3-0.6c-0.3,0.3-0.3,1.1,0.1,1.7
			C151.8,240.4,152.3,240.6,152.7,240.4z M142.2,179.3C142.2,179.3,142.2,179.3,142.2,179.3C142.2,179.3,142.2,179.3,142.2,179.3
			L142.2,179.3z M141.1,285.4c-0.3,0.2-0.3,0.8,0.1,1.4c0.3,0.5,0.7,0.7,1,0.6c0,0,0,0,0.1,0c0.3-0.2,0.3-0.8-0.1-1.4
			C141.9,285.4,141.4,285.2,141.1,285.4z M141.9,181.5c0.4,1,1.3,1.6,1.9,1.4c0,0,0.1,0,0.1-0.1c0.5-0.3,0.6-1.2,0.2-2.1
			c-0.4-1-1.3-1.6-1.9-1.4C141.6,179.6,141.5,180.5,141.9,181.5z M142.2,188.6c-0.5,0.2-0.6,1.2-0.2,2.1c0.4,0.9,1.3,1.4,1.8,1.2
			c0,0,0,0,0,0c0.5-0.3,0.6-1.2,0.1-2C143.5,188.9,142.7,188.3,142.2,188.6z M153.3,305.8C153.3,305.8,153.3,305.8,153.3,305.8
			c0.1-0.1,0.1-0.3,0-0.4c-0.1-0.1-0.2-0.1-0.3,0c0,0.1,0,0.3,0.1,0.4C153.1,305.8,153.2,305.9,153.3,305.8z M159.4,218.4
			c0.4-0.3,0.3-1.1-0.1-1.8c-0.4-0.7-1.1-1-1.5-0.7c-0.4,0.3-0.4,1.1,0.1,1.8C158.3,218.4,158.9,218.7,159.4,218.4
			C159.3,218.5,159.4,218.4,159.4,218.4z M143.2,249.7c0,0,0.1-0.1,0.1-0.1c0.3-0.3,0.2-1.1-0.2-1.7c-0.4-0.6-1-0.8-1.3-0.5
			c-0.3,0.3-0.3,1.1,0.2,1.7C142.3,249.6,142.8,249.9,143.2,249.7z M150.8,311.3c0,0.2,0,0.4,0.2,0.5c0.1,0.1,0.2,0.1,0.3,0.1
			c0,0,0.1-0.1,0.1-0.1c0-0.2,0-0.4-0.2-0.5C151,311.1,150.9,311.1,150.8,311.3z M166.2,322.7c0.1,0,0.1,0,0.2,0
			c0.1,0,0.1-0.1,0.1-0.2c0-0.2-0.1-0.4-0.3-0.5c-0.2-0.1-0.3,0-0.3,0.2C165.9,322.4,166.1,322.6,166.2,322.7z M175.5,234.1
			c-0.4-0.6-0.9-0.8-1.2-0.5c-0.3,0.3-0.2,1,0.2,1.5c0.3,0.5,0.8,0.7,1.1,0.6c0,0,0.1,0,0.1-0.1
			C175.9,235.4,175.9,234.7,175.5,234.1z M168.2,199.8C168.2,199.8,168.2,199.8,168.2,199.8c0.5-0.3,0.5-1.1,0.1-1.9
			c-0.4-0.8-1.1-1.2-1.6-0.9c-0.4,0.3-0.5,1.1,0,1.9C167.1,199.6,167.8,200,168.2,199.8z M165.9,189.1c0.4,0.8,1.2,1.3,1.7,1.1
			c0,0,0,0,0,0c0.5-0.2,0.6-1.1,0.1-2c-0.4-0.8-1.2-1.3-1.7-1.1C165.5,187.4,165.4,188.3,165.9,189.1z M167.8,182.1
			C167.8,182.1,167.8,182.1,167.8,182.1c0.6-0.3,0.7-1.1,0.3-2c-0.4-0.9-1.2-1.5-1.8-1.3c-0.6,0.2-0.7,1.1-0.3,2
			C166.4,181.7,167.2,182.3,167.8,182.1z M174.3,308.3c-0.2,0.1-0.2,0.5,0,0.9c0.2,0.4,0.5,0.6,0.7,0.4l0,0c0.2-0.1,0.2-0.5,0-0.9
			C174.9,308.4,174.5,308.2,174.3,308.3z M182.9,330.3c0,0,0.1-0.1,0.1-0.1c0-0.1-0.1-0.3-0.2-0.3c-0.1-0.1-0.2,0-0.2,0.1
			c0,0.1,0.1,0.3,0.2,0.3C182.8,330.3,182.8,330.3,182.9,330.3z M164.9,243.1c-0.3,0.3-0.2,1,0.2,1.5c0.3,0.5,0.8,0.7,1.1,0.6
			c0,0,0.1,0,0.1-0.1c0.3-0.3,0.2-1-0.2-1.5C165.7,243,165.2,242.8,164.9,243.1z M175.5,273.9C175.5,273.9,175.6,273.9,175.5,273.9
			c0.3-0.3,0.3-0.9,0-1.3c-0.3-0.4-0.7-0.6-1-0.3c-0.2,0.2-0.2,0.8,0.2,1.3C174.9,273.9,175.2,274,175.5,273.9z M163.9,318.8
			c-0.2,0-0.4,0.2-0.3,0.5c0.1,0.3,0.3,0.6,0.6,0.6c0.1,0,0.1,0,0.1,0c0.1-0.1,0.2-0.3,0.1-0.5C164.3,319.1,164.1,318.8,163.9,318.8
			z M170.9,297.2C170.9,297.2,170.9,297.2,170.9,297.2c0.3-0.2,0.2-0.7,0-1.1c-0.3-0.4-0.6-0.6-0.9-0.4l0,0
			c-0.2,0.2-0.2,0.7,0.1,1.1C170.3,297.2,170.6,297.3,170.9,297.2z M165.2,322.8c0.1,0,0.1,0,0.2,0c0.1,0,0.1-0.2,0.1-0.3
			c0-0.3-0.2-0.5-0.4-0.6c-0.2-0.1-0.3,0.1-0.3,0.3C164.8,322.5,165,322.7,165.2,322.8z M172.2,222.7
			C172.2,222.7,172.3,222.6,172.2,222.7c0.4-0.4,0.4-1.1,0-1.7c-0.4-0.6-1-0.9-1.3-0.6c-0.3,0.3-0.3,1,0.1,1.7
			C171.3,222.6,171.8,222.9,172.2,222.7z M160.2,304.5C160.2,304.5,160.2,304.5,160.2,304.5c0.3-0.1,0.3-0.6,0.1-1
			c-0.2-0.4-0.6-0.7-0.9-0.5c-0.3,0.1-0.3,0.6-0.1,1C159.5,304.4,159.9,304.7,160.2,304.5z M170.6,259.4c0,0,0.1,0,0.1-0.1
			c0.3-0.3,0.2-0.9-0.2-1.4c-0.3-0.5-0.8-0.7-1.1-0.4c-0.3,0.3-0.2,0.9,0.2,1.4C169.9,259.4,170.3,259.6,170.6,259.4z M123,216.4
			C123,216.4,123,216.3,123,216.4c0.5-0.4,0.5-1.3,0-2.1c-0.5-0.8-1.2-1.2-1.7-0.8c-0.5,0.3-0.4,1.3,0.1,2.1
			C121.8,216.2,122.5,216.6,123,216.4z M166.3,283.6C166.3,283.6,166.3,283.5,166.3,283.6c0.3-0.3,0.3-0.8,0-1.3
			c-0.3-0.4-0.7-0.6-1-0.4l0,0c-0.2,0.2-0.2,0.8,0.1,1.2C165.6,283.5,166,283.7,166.3,283.6z M144.6,202.2
			C144.7,202.1,144.7,202.1,144.6,202.2c0.5-0.3,0.5-1.2,0.1-2c-0.5-0.8-1.2-1.3-1.7-1c-0.5,0.3-0.5,1.2-0.1,2
			C143.4,202,144.2,202.4,144.6,202.2z M169.7,210.6C169.8,210.6,169.8,210.6,169.7,210.6c0.5-0.3,0.4-1.1,0-1.8
			c-0.4-0.7-1.1-1-1.5-0.7c-0.4,0.3-0.4,1.1,0,1.8C168.7,210.5,169.3,210.9,169.7,210.6z M118.4,303.4c-0.3-0.1-0.6,0.1-0.5,0.6
			c0.1,0.4,0.4,0.9,0.7,1c0.1,0,0.2,0,0.3,0c0.1-0.1,0.2-0.3,0.2-0.5C119.1,303.9,118.8,303.5,118.4,303.4z M132.4,256.8
			c-0.3,0.3-0.2,1.1,0.2,1.7c0.4,0.5,0.9,0.8,1.2,0.6c0,0,0.1,0,0.1-0.1c0.3-0.3,0.3-1.1-0.2-1.7
			C133.3,256.7,132.7,256.5,132.4,256.8z M119.3,302.4c-0.1-0.5-0.5-1-0.9-1c-0.1,0-0.1,0-0.2,0c-0.2-0.1-0.4,0-0.4,0.3
			c0,0.2,0.1,0.6,0.3,0.8c0.2,0.4,0.5,0.7,0.8,0.7c0.1,0,0.2,0,0.2,0C119.3,303.1,119.4,302.8,119.3,302.4z M131.6,187.3
			C131.6,187.3,131.7,187.3,131.6,187.3c0.6-0.3,0.7-1.2,0.2-2.2c-0.5-1-1.3-1.6-1.9-1.3c-0.6,0.2-0.7,1.2-0.2,2.2
			C130.2,186.9,131,187.5,131.6,187.3z M132.8,303c0,0,0.1,0,0.1,0c0.2-0.1,0.3-0.5,0.1-1c-0.2-0.5-0.6-0.9-0.9-0.8
			c-0.3,0-0.4,0.5-0.3,1C132.1,302.6,132.5,303,132.8,303z M130.1,269.6L130.1,269.6c0.1-0.1,0.1-0.2,0-0.3
			c-0.1-0.1-0.2-0.2-0.3-0.1c-0.1,0.1-0.1,0.2,0,0.3C129.9,269.6,130,269.6,130.1,269.6z M132.2,197.4L132.2,197.4
			c0.5-0.3,0.6-1.2,0.1-2.1c-0.5-0.9-1.3-1.4-1.8-1.1c-0.5,0.3-0.6,1.2-0.1,2.1C130.8,197.2,131.6,197.7,132.2,197.4z M131.1,294.1
			C131.1,294.1,131.2,294.1,131.1,294.1c0.3-0.2,0.4-0.7,0.1-1.3c-0.3-0.5-0.8-0.9-1.1-0.7c-0.3,0.1-0.4,0.7-0.1,1.3
			C130.3,293.9,130.8,294.2,131.1,294.1z M133.6,208.9C133.6,208.9,133.7,208.9,133.6,208.9c0.5-0.3,0.5-1.2,0-2.1
			c-0.5-0.8-1.2-1.2-1.7-0.9c-0.5,0.3-0.5,1.2,0,2C132.4,208.8,133.2,209.2,133.6,208.9z M117.8,178.7c-0.7,0.2-0.8,1.2-0.3,2.3
			c0.5,1,1.4,1.7,2,1.5c0,0,0.1,0,0.1,0c0.5-0.3,0.6-1.2,0.2-2.2C119.4,179.2,118.5,178.5,117.8,178.7z M118.5,297.8
			c0,0,0.1,0,0.1,0c0.1-0.1,0.2-0.2,0.2-0.3c0.1,0,0.2,0.1,0.3,0c0.1,0,0.1-0.1,0.1-0.2c0.1-0.3-0.1-0.6-0.3-0.8
			c-0.1-0.1-0.2-0.1-0.3-0.1c-0.2-0.4-0.6-0.6-0.9-0.5c-0.4,0.1-0.5,0.6-0.3,1.1C117.7,297.5,118.1,297.9,118.5,297.8z M120.2,253.8
			c0,0,0.1-0.1,0.1-0.1c0.4-0.3,0.3-1.2-0.2-1.8c-0.4-0.7-1.1-0.9-1.4-0.6c-0.3,0.4-0.3,1.2,0.2,1.8
			C119.2,253.7,119.8,253.9,120.2,253.8z M116.4,253.4c0,0.1,0,0.3,0.2,0.4c0.1,0,0.1,0.1,0.2,0c0,0,0.1,0,0.1-0.1
			c0-0.1,0-0.3-0.1-0.3l0,0C116.5,253.2,116.4,253.3,116.4,253.4z M120.9,289.5C120.9,289.5,121,289.4,120.9,289.5
			c0.2-0.2,0.1-0.5-0.1-0.7c-0.2-0.2-0.4-0.3-0.5-0.1c-0.1,0.1-0.1,0.4,0.1,0.7C120.6,289.5,120.8,289.5,120.9,289.5z M116,286.7
			c-0.4,0.2-0.4,0.8-0.1,1.4c0.3,0.6,0.8,1,1.2,0.8c0.4-0.2,0.4-0.8,0.1-1.4C116.9,286.9,116.4,286.6,116,286.7z M145.5,299.3
			C145.5,299.3,145.5,299.3,145.5,299.3c0.3-0.1,0.3-0.6,0.1-1.1c-0.2-0.5-0.7-0.8-1-0.6c-0.3,0.1-0.3,0.6-0.1,1.1
			C144.8,299.1,145.2,299.4,145.5,299.3z M119.2,200.5c-0.5,0.3-0.5,1.3,0,2.2c0.5,0.9,1.3,1.3,1.8,1.1c0,0,0,0,0,0
			c0.5-0.3,0.5-1.3,0-2.2C120.5,200.6,119.7,200.2,119.2,200.5z M118,188.8c-0.6,0.3-0.7,1.3-0.2,2.2c0.5,1,1.3,1.5,1.9,1.3
			c0,0,0,0,0,0c0.5-0.3,0.6-1.3,0.1-2.2C119.4,189.1,118.5,188.6,118,188.8z M148.6,314c0.1,0,0.1,0,0.2,0c0.2-0.1,0.2-0.3,0.2-0.6
			c-0.1-0.4-0.4-0.7-0.7-0.8c-0.3,0-0.4,0.2-0.3,0.6C148.1,313.6,148.4,314,148.6,314z M149.3,316.3c0.1,0,0.2,0,0.2,0
			c0.1-0.1,0.2-0.2,0.1-0.4c0-0.3-0.3-0.6-0.5-0.7c-0.2-0.1-0.4,0.1-0.4,0.4C148.8,315.9,149,316.3,149.3,316.3z M140.3,288.2
			c-0.1,0.1-0.1,0.2,0,0.3c0.1,0.1,0.2,0.2,0.2,0.1c0,0,0,0,0,0c0.1-0.1,0.1-0.2,0-0.3C140.5,288.2,140.4,288.1,140.3,288.2z
			 M149.2,226.7C149.2,226.7,149.2,226.7,149.2,226.7c0.5-0.4,0.4-1.2,0-1.9c-0.4-0.7-1.1-1-1.5-0.7c-0.4,0.3-0.3,1.1,0.1,1.8
			C148.2,226.6,148.8,226.9,149.2,226.7z M149.8,315.5c0.1,0.1,0.2,0.1,0.3,0c0.1,0,0.1-0.1,0.1-0.2c0-0.2-0.1-0.5-0.3-0.6
			c-0.2-0.1-0.4,0-0.4,0.2C149.5,315,149.6,315.3,149.8,315.5z M146.4,213.9C146.5,213.9,146.5,213.8,146.4,213.9
			c0.5-0.3,0.5-1.2,0-1.9c-0.4-0.8-1.1-1.1-1.6-0.8c-0.4,0.3-0.4,1.2,0,1.9C145.4,213.7,146,214.1,146.4,213.9z M147.5,308.3
			c0,0,0.1,0,0.1,0c0.2-0.1,0.3-0.5,0.1-0.8c-0.2-0.4-0.5-0.8-0.8-0.7c-0.3,0-0.4,0.4-0.2,0.9C146.9,308,147.3,308.4,147.5,308.3z
			 M127,280.1c-0.3,0.2-0.3,0.9,0.1,1.5c0.3,0.5,0.8,0.8,1.2,0.6c0,0,0,0,0.1,0c0.3-0.3,0.3-0.9-0.1-1.5
			C127.8,280.1,127.3,279.9,127,280.1z M147.6,264.3c0,0,0.1,0,0.1-0.1c0.3-0.3,0.2-1-0.2-1.5c-0.4-0.6-0.9-0.8-1.2-0.5
			c-0.3,0.3-0.2,1,0.2,1.5C146.8,264.2,147.2,264.5,147.6,264.3z M133.5,309c-0.3-0.1-0.5,0.1-0.4,0.5c0,0.4,0.3,0.8,0.6,0.9
			c0.1,0,0.2,0,0.3,0c0.1-0.1,0.2-0.2,0.2-0.5C134.1,309.5,133.8,309.1,133.5,309z M134.4,303.5c-0.1,0.2,0.1,0.5,0.2,0.7
			c0.1,0.1,0.2,0.1,0.3,0.1c0.1,0,0.1-0.1,0.1-0.1c0.1-0.2-0.1-0.5-0.2-0.7C134.7,303.2,134.5,303.3,134.4,303.5z M134.3,308.5
			c0-0.3-0.2-0.6-0.4-0.8c0,0,0,0,0,0c0,0,0,0,0,0c-0.1-0.4-0.5-0.8-0.8-0.9c-0.3,0-0.5,0.3-0.4,0.7c0.1,0.4,0.5,0.8,0.8,0.9
			c0,0,0,0,0,0c0.1,0.1,0.2,0.3,0.3,0.4c0.1,0.1,0.2,0.1,0.3,0C134.3,308.8,134.3,308.7,134.3,308.5z M138.1,273.6
			C138.1,273.6,138.1,273.6,138.1,273.6c0.4-0.4,0.3-1,0-1.6c-0.4-0.6-0.9-0.8-1.2-0.5c-0.3,0.3-0.2,1,0.1,1.5
			C137.3,273.5,137.8,273.8,138.1,273.6z M129.6,244.4c0,0,0.1,0,0.1-0.1c0.4-0.3,0.3-1.2-0.2-1.8c-0.5-0.7-1.1-0.9-1.4-0.6
			c-0.4,0.3-0.3,1.2,0.2,1.8C128.7,244.3,129.2,244.6,129.6,244.4z M136.6,296.7c-0.1,0.1,0,0.3,0.1,0.5c0.1,0.1,0.2,0.2,0.3,0.1
			c0,0,0,0,0.1-0.1c0.1-0.1,0-0.4-0.1-0.5C136.9,296.6,136.7,296.6,136.6,296.7z M136,221.7C136.1,221.7,136.1,221.7,136,221.7
			c0.5-0.4,0.5-1.2,0-2c-0.5-0.7-1.2-1.1-1.6-0.8c-0.4,0.3-0.4,1.2,0.1,1.9C135,221.6,135.6,221.9,136,221.7z M139.3,235.4
			c0,0,0.1-0.1,0.1-0.1c0.4-0.3,0.3-1.1-0.1-1.8c-0.4-0.7-1.1-0.9-1.4-0.6l0,0c-0.4,0.3-0.3,1.2,0.1,1.8
			C138.3,235.3,138.9,235.6,139.3,235.4z"/>
		<g id="Technology_4_">
			<g class="st64">
				<path d="M115.2,257.6h-8.4v-5h22.9v5h-8.4v21.3h-6.1V257.6z"/>
				<path d="M153.3,274v4.9h-20.4v-26.3h19.9v4.9H139v5.7h12.2v4.7H139v6.1H153.3z"/>
				<path d="M163.4,277.6c-2.2-1.2-3.9-2.8-5.1-4.8c-1.2-2.1-1.9-4.4-1.9-7s0.6-4.9,1.9-7c1.2-2.1,2.9-3.7,5.1-4.8
					c2.2-1.2,4.6-1.7,7.3-1.7c2.3,0,4.3,0.4,6.2,1.2c1.8,0.8,3.4,2,4.6,3.5l-3.9,3.6c-1.8-2.1-4-3.1-6.6-3.1c-1.6,0-3.1,0.4-4.4,1.1
					c-1.3,0.7-2.3,1.7-3,3c-0.7,1.3-1.1,2.7-1.1,4.4s0.4,3.1,1.1,4.4c0.7,1.3,1.7,2.3,3,3c1.3,0.7,2.7,1.1,4.4,1.1
					c2.6,0,4.8-1,6.6-3.1l3.9,3.6c-1.3,1.5-2.8,2.7-4.7,3.5c-1.9,0.8-3.9,1.2-6.2,1.2C168,279.4,165.5,278.8,163.4,277.6z"/>
				<path d="M209.7,252.6v26.3h-6.1v-10.8h-11.9v10.8h-6.1v-26.3h6.1V263h11.9v-10.4H209.7z"/>
				<path d="M240.1,252.6v26.3h-5L222,263v16h-6v-26.3h5l13.1,16v-16H240.1z"/>
				<path d="M251.6,277.6c-2.2-1.2-3.9-2.8-5.1-4.9c-1.2-2.1-1.9-4.4-1.9-7s0.6-4.9,1.9-7c1.2-2.1,3-3.7,5.1-4.9
					c2.2-1.2,4.7-1.8,7.4-1.8c2.7,0,5.2,0.6,7.4,1.8c2.2,1.2,3.9,2.8,5.1,4.9c1.3,2.1,1.9,4.4,1.9,7s-0.6,4.9-1.9,7
					c-1.3,2.1-3,3.7-5.1,4.9s-4.6,1.8-7.4,1.8C256.3,279.4,253.8,278.8,251.6,277.6z M263.2,273.1c1.3-0.7,2.2-1.7,2.9-3
					c0.7-1.3,1.1-2.7,1.1-4.4s-0.4-3.1-1.1-4.4c-0.7-1.3-1.7-2.3-2.9-3c-1.3-0.7-2.7-1.1-4.2-1.1c-1.6,0-3,0.4-4.2,1.1
					c-1.3,0.7-2.2,1.7-2.9,3c-0.7,1.3-1.1,2.7-1.1,4.4s0.4,3.1,1.1,4.4c0.7,1.3,1.7,2.3,2.9,3c1.3,0.7,2.7,1.1,4.2,1.1
					C260.6,274.2,262,273.8,263.2,273.1z"/>
				<path d="M278,252.6h6.1V274h13.2v5H278V252.6z"/>
				<path d="M305.6,277.6c-2.2-1.2-3.9-2.8-5.1-4.9c-1.2-2.1-1.9-4.4-1.9-7s0.6-4.9,1.9-7c1.2-2.1,3-3.7,5.1-4.9
					c2.2-1.2,4.7-1.8,7.4-1.8s5.2,0.6,7.4,1.8c2.2,1.2,3.9,2.8,5.1,4.9c1.3,2.1,1.9,4.4,1.9,7s-0.6,4.9-1.9,7
					c-1.3,2.1-3,3.7-5.1,4.9s-4.6,1.8-7.4,1.8S307.8,278.8,305.6,277.6z M317.2,273.1c1.3-0.7,2.2-1.7,2.9-3
					c0.7-1.3,1.1-2.7,1.1-4.4s-0.4-3.1-1.1-4.4c-0.7-1.3-1.7-2.3-2.9-3c-1.3-0.7-2.7-1.1-4.2-1.1s-3,0.4-4.2,1.1
					c-1.3,0.7-2.2,1.7-2.9,3c-0.7,1.3-1.1,2.7-1.1,4.4s0.4,3.1,1.1,4.4c0.7,1.3,1.7,2.3,2.9,3c1.3,0.7,2.7,1.1,4.2,1.1
					S315.9,273.8,317.2,273.1z"/>
				<path d="M349.7,265.4h5.6V276c-1.4,1.1-3.1,1.9-5,2.5c-1.9,0.6-3.8,0.9-5.7,0.9c-2.7,0-5.2-0.6-7.4-1.7s-3.9-2.8-5.1-4.8
					c-1.2-2.1-1.9-4.4-1.9-7s0.6-4.9,1.9-7c1.2-2.1,3-3.7,5.2-4.8c2.2-1.2,4.7-1.7,7.4-1.7c2.3,0,4.4,0.4,6.3,1.2
					c1.9,0.8,3.5,1.9,4.7,3.4l-3.9,3.6c-1.9-2-4.1-3-6.8-3c-1.7,0-3.2,0.4-4.5,1.1c-1.3,0.7-2.3,1.7-3,3s-1.1,2.7-1.1,4.4
					c0,1.6,0.4,3.1,1.1,4.4c0.7,1.3,1.7,2.3,3,3c1.3,0.7,2.8,1.1,4.4,1.1c1.8,0,3.3-0.4,4.7-1.1V265.4z"/>
				<path d="M360.9,252.6h6.1v26.3h-6.1V252.6z"/>
				<path d="M393.6,274v4.9h-20.4v-26.3h19.9v4.9h-13.8v5.7h12.2v4.7h-12.2v6.1H393.6z"/>
			</g>
			<g>
				<path class="st12" d="M115.2,254.7h-8.4v-5h22.9v5h-8.4V276h-6.1V254.7z"/>
				<path class="st12" d="M153.3,271.1v4.9h-20.4v-26.3h19.9v4.9H139v5.7h12.2v4.7H139v6.1H153.3z"/>
				<path class="st12" d="M163.4,274.7c-2.2-1.2-3.9-2.8-5.1-4.8c-1.2-2.1-1.9-4.4-1.9-7s0.6-4.9,1.9-7c1.2-2.1,2.9-3.7,5.1-4.8
					c2.2-1.2,4.6-1.7,7.3-1.7c2.3,0,4.3,0.4,6.2,1.2c1.8,0.8,3.4,2,4.6,3.5l-3.9,3.6c-1.8-2.1-4-3.1-6.6-3.1c-1.6,0-3.1,0.4-4.4,1.1
					c-1.3,0.7-2.3,1.7-3,3c-0.7,1.3-1.1,2.7-1.1,4.4s0.4,3.1,1.1,4.4c0.7,1.3,1.7,2.3,3,3c1.3,0.7,2.7,1.1,4.4,1.1
					c2.6,0,4.8-1,6.6-3.1l3.9,3.6c-1.3,1.5-2.8,2.7-4.7,3.5c-1.9,0.8-3.9,1.2-6.2,1.2C168,276.4,165.5,275.9,163.4,274.7z"/>
				<path class="st12" d="M209.7,249.7V276h-6.1v-10.8h-11.9V276h-6.1v-26.3h6.1v10.4h11.9v-10.4H209.7z"/>
				<path class="st12" d="M240.1,249.7V276h-5L222,260v16h-6v-26.3h5l13.1,16v-16H240.1z"/>
				<path class="st12" d="M251.6,274.7c-2.2-1.2-3.9-2.8-5.1-4.9c-1.2-2.1-1.9-4.4-1.9-7s0.6-4.9,1.9-7c1.2-2.1,3-3.7,5.1-4.9
					c2.2-1.2,4.7-1.8,7.4-1.8c2.7,0,5.2,0.6,7.4,1.8c2.2,1.2,3.9,2.8,5.1,4.9c1.3,2.1,1.9,4.4,1.9,7s-0.6,4.9-1.9,7
					c-1.3,2.1-3,3.7-5.1,4.9s-4.6,1.8-7.4,1.8C256.3,276.4,253.8,275.9,251.6,274.7z M263.2,270.2c1.3-0.7,2.2-1.7,2.9-3
					c0.7-1.3,1.1-2.7,1.1-4.4s-0.4-3.1-1.1-4.4c-0.7-1.3-1.7-2.3-2.9-3c-1.3-0.7-2.7-1.1-4.2-1.1c-1.6,0-3,0.4-4.2,1.1
					c-1.3,0.7-2.2,1.7-2.9,3c-0.7,1.3-1.1,2.7-1.1,4.4s0.4,3.1,1.1,4.4c0.7,1.3,1.7,2.3,2.9,3c1.3,0.7,2.7,1.1,4.2,1.1
					C260.6,271.3,262,270.9,263.2,270.2z"/>
				<path class="st12" d="M278,249.7h6.1V271h13.2v5H278V249.7z"/>
				<path class="st12" d="M305.6,274.7c-2.2-1.2-3.9-2.8-5.1-4.9c-1.2-2.1-1.9-4.4-1.9-7s0.6-4.9,1.9-7c1.2-2.1,3-3.7,5.1-4.9
					c2.2-1.2,4.7-1.8,7.4-1.8s5.2,0.6,7.4,1.8c2.2,1.2,3.9,2.8,5.1,4.9c1.3,2.1,1.9,4.4,1.9,7s-0.6,4.9-1.9,7
					c-1.3,2.1-3,3.7-5.1,4.9s-4.6,1.8-7.4,1.8S307.8,275.9,305.6,274.7z M317.2,270.2c1.3-0.7,2.2-1.7,2.9-3
					c0.7-1.3,1.1-2.7,1.1-4.4s-0.4-3.1-1.1-4.4c-0.7-1.3-1.7-2.3-2.9-3c-1.3-0.7-2.7-1.1-4.2-1.1s-3,0.4-4.2,1.1
					c-1.3,0.7-2.2,1.7-2.9,3c-0.7,1.3-1.1,2.7-1.1,4.4s0.4,3.1,1.1,4.4c0.7,1.3,1.7,2.3,2.9,3c1.3,0.7,2.7,1.1,4.2,1.1
					S315.9,270.9,317.2,270.2z"/>
				<path class="st12" d="M349.7,262.4h5.6v10.7c-1.4,1.1-3.1,1.9-5,2.5c-1.9,0.6-3.8,0.9-5.7,0.9c-2.7,0-5.2-0.6-7.4-1.7
					s-3.9-2.8-5.1-4.8c-1.2-2.1-1.9-4.4-1.9-7s0.6-4.9,1.9-7c1.2-2.1,3-3.7,5.2-4.8c2.2-1.2,4.7-1.7,7.4-1.7c2.3,0,4.4,0.4,6.3,1.2
					c1.9,0.8,3.5,1.9,4.7,3.4l-3.9,3.6c-1.9-2-4.1-3-6.8-3c-1.7,0-3.2,0.4-4.5,1.1c-1.3,0.7-2.3,1.7-3,3s-1.1,2.7-1.1,4.4
					c0,1.6,0.4,3.1,1.1,4.4c0.7,1.3,1.7,2.3,3,3c1.3,0.7,2.8,1.1,4.4,1.1c1.8,0,3.3-0.4,4.7-1.1V262.4z"/>
				<path class="st12" d="M360.9,249.7h6.1V276h-6.1V249.7z"/>
				<path class="st12" d="M393.6,271.1v4.9h-20.4v-26.3h19.9v4.9h-13.8v5.7h12.2v4.7h-12.2v6.1H393.6z"/>
			</g>
		</g>
	</g>
	
		<use xlink:href="#Bobo_techno"  width="207.3" height="211.3" x="-103.6" y="-105.6" transform="matrix(0.9699 0 0 -0.9699 102.5217 396.9622)" style="overflow:visible;"/>
</g>
</svg>
